,2014,2015,2016,2017
normal_level,0.003,0.05,0.005,0.074
wd_level,-0.65,-1.311,-0.687,-0.893
T_startdrawdown,288,288,298,298
T_stopdrawdown,309,330,333,333
T_startrefill,435,399,415,372
T_stoprefill,462,463,432,379
Qmin_recession,0.061252422,0.061252422,0.061252422,0.061252422
Qmin_refill,0.061252422,0.061252422,0.061252422,0.061252422
Qmin_drawdown,0.061252422,0.061252422,0.061252422,0.061252422
Qmin_summer,0.061252422,0.061252422,0.061252422,0.061252422
Qmax_recession,1.65,1.65,1.65,1.65
Qmax_refill,1.65,1.65,1.65,1.65
Qmax_drawdown,1.65,1.65,1.65,1.65
Qmax_summer,1.65,1.65,1.65,1.65
alpha,0.1,0.1,0.1,0.1
beta,0.05,0.05,0.05,0.05
gamma,0.5,0.5,0.5,0.5
theta,0.5,0.5,0.5,0.5
