,2015,2016,2017
normal_level,0.02,-0.001,-0.017
wd_level,-0.616,-0.631,-0.835
T_startdrawdown,305,285,283
T_stopdrawdown,307,293,295
T_startrefill,427,459,444
T_stoprefill,431,461,459
Qmin_recession,0.12,0.013675066,0.090790671
Qmin_refill,0.033401305,0.012562618,0.076822463
Qmin_drawdown,0.25,0.155321783,0.172388354
Qmin_summer,0.033401305,0.067736816,0.022076358
Qmax_recession,2.412829864,2.412829864,2.412829864
Qmax_refill,2.412829864,2.171677149,1.219111442
Qmax_drawdown,0.245989198,0.245989198,0.245989198
Qmax_summer,2.412829864,1.81500212,1.73180819
alpha,0.203229036,0.203229036,0.226360204
beta,0.001472199,0.001472199,0.372354128
gamma,0.460622321,0.460622321,0.08841096
theta,0.453865825,0.453865825,0.168629096
