,2014,2015,2016,2017
normal_level,0.001,0.1,0.15,0.1
wd_level,-0.3,-0.3,-0.25,-0.1
T_startdrawdown,305,305,305,305
T_stopdrawdown,335,335,335,335
T_startrefill,366,366,366,366
T_stoprefill,515,515,515,515
Qmin_recession,0.12,0.12,0.013675,0.090791
Qmin_refill,0.07757102342,0.07757102342,0.07757102342,0.07757102342
Qmin_drawdown,0.06205681874,0.06205681874,0.06205681874,0.06205681874
Qmin_summer,0.036401,0.036401,0.057737,0.052076
Qmax_recession,0.6205681874,0.6205681874,0.6205681874,0.6205681874
Qmax_refill,2.41283,2.41283,2.171677,1.219111
Qmax_drawdown,0.6205681874,0.6205681874,0.6205681874,0.6205681874
Qmax_summer,2.41283,2.41283,1.815002,1.731808
alpha_min,1,1,1,1
alpha_max,30,30,30,30
beta_min,1,1,1,1
beta_max,13,13,13,6.431658
gamma_min,1,1,1,1
gamma_max,4.852652,4.852652,4.852652,32.363202
theta_min,1,1,1,1
theta_max,14.952519,14.952519,15.952519,16.221272
