,2014,2015,2016,2017
normal_level,0.0,0.0,0.0,0.0
wd_level,-0.9144000000000001,-0.9144000000000001,-0.9144000000000001,-0.9144000000000001
T_startdrawdown,305.0,305.0,305.0,305.0
T_stopdrawdown,335.0,335.0,335.0,335.0
T_startrefill,366.0,366.0,366.0,366.0
T_stoprefill,515.0,515.0,515.0,515.0
Qmin_recession,0.006611818,0.019992194,0.003851318,0.000325706
Qmin_refill,0.021398637708480002,0.021398637708480002,0.021398637708480002,0.021398637708480002
Qmin_drawdown,0.015070397,0.00699099,0.023463346,0.009192617
Qmin_summer,0.004231794,0.016363351,0.012677199,0.015035216
Qmax_recession,0.17118910166784002,0.17118910166784002,0.17118910166784002,0.17118910166784002
Qmax_refill,0.359773502,0.325070466,0.195717497,0.224432102
Qmax_drawdown,0.714643091,0.685997882,0.564953573,0.63478485
Qmax_summer,0.501280683,0.752635677,0.752635677,0.752635677
alpha_min,1.0,1.0,1.0,1.0
alpha_max,30.0,30.0,30.0,30.0
beta_min,1.0,1.0,1.0,1.0
beta_max,22.17722383044197,5.455014466032948,8.503254337334567,25.670433658594927
gamma_min,1.0,1.0,1.0,1.0
gamma_max,30.0,30.0,30.0,30.0
theta_min,1.0,1.0,1.0,1.0
theta_max,22.657371316831902,15.266753940304016,139.0,16.87963449165599
