Parameter Code,Parameter Description,Value,Unit
ACRSDFT,Area underlain by stratified drift,2.22,square miles
BSLDEM10M,Mean basin slope computed from 10 m DEM,10.965,percent
BSLDEM250,Mean basin slope computed from 1:250K DEM,4.811,percent
CAT1ROADS,"Length of interstates lmtd access highways and ramps for lmtd access highways, includes cloverleaf interchanges (USGS Ntl Transp Dataset)",8.78,miles
CAT2ROADS,"Length of sec hwy or maj connecting roads; main arteries & hwys not lmtd access, usually in the US Hwy or State Hwy systems (USGS Ntl Transp Dataset)",0.0,miles
CAT3ROADS,"Length of local connecting roads; roads that collect traffic from local roads & connect towns, subdivisions & neighborhoods (USGS Nat Transp Dataset)",1.01,miles
CAT4ROADS,"Length of local roads; generally paved street, road, or byway that usually have single lane of traffic in each direction (USGS Ntnl Transp Dataset)",56.3,miles
CENTROIDX,Basin centroid horizontal (x) location in state plane coordinates,144745.5,meters
CENTROIDY,Basin centroid vertical (y) location in state plane units,865801.8,meters
CROSCOUNT1,"Number of intersections between streams and roads, where the roads are interstate, limited access highway, or ramp (CAT1ROADS)",14.0,dimensionless
CROSCOUNT2,"Number of intersections between streams and roads, where the roads are secondary highway or major connecting road (CAT2ROADS)",0.0,dimensionless
CROSCOUNT3,"Number of intersections between streams and roads, where roads are local conecting roads (CAT3ROADS)",2.0,dimensionless
CROSCOUNT4,"Number of intersections between streams and roads, where roads are local  roads (CAT4ROADS)",68.0,dimensionless
CRSDFT,Percentage of area of coarse-grained stratified drift,12.43,percent
CSL10_85,Change in elevation divided by length between points 10 and 85 percent of distance along main channel to basin divide - main channel method not known,19.3,feet per mi
DRFTPERSTR,Area of stratified drift per unit of stream length,0.0427,square mile per mile
DRNAREA,Area that drains to a point on a stream,18.0,square miles
ELEV,Mean Basin Elevation,886.0,feet
FOREST,Percentage of area covered by forest,74.41,percent
LAKEAREA,Percentage of Lakes and Ponds,4.59,percent
LC06STOR,Percentage of water bodies and wetlands determined from the NLCD 2006,11.52,percent
LC11DEV,Percentage of developed (urban) land from NLCD 2011 classes 21-24,10.5,percent
LC11IMP,Average percentage of impervious area determined from NLCD 2011 impervious dataset,1.09,percent
LFPLENGTH,Length of longest flow path,8.8,miles
MAREGION,Region of Massachusetts 0 for Eastern 1 for Western,0.0,dimensionless
MAXTEMPC,"Mean annual maximum air temperature over basin area, in degrees Centigrade",13.6,degrees C
OUTLETX,Basin outlet horizontal (x) location in state plane coordinates,145965.0,feet
OUTLETY,Basin outlet vertical (y) location in state plane coordinates,869005.0,feet
PCTSNDGRV,Percentage of land surface underlain by sand and gravel deposits,12.43,percent
PRECPRIS00,Basin average mean annual precipitation for 1971 to 2000 from PRISM,50.1,inches
STRMTOT,"total length of all mapped streams (1:24,000-scale) in the basin",52.1,miles
WETLAND,Percentage of Wetlands,4.22,percent
