,2014,2015,2016,2017
normal_level,0.001,-0.008,0.032,0.048
wd_level,-0.636,-0.697,-0.704,-0.647
T_startdrawdown,305.0,305.0,305.0,304.0
T_stopdrawdown,320.0,323.0,324.0,330.0
T_startrefill,447.0,410.0,403.0,377.0
T_stoprefill,458.0,444.0,423.0,378.0
Qmin_recession,0.0013451042015567224,0.030343651104080025,0.01294596262319133,0.011725776214666521
Qmin_refill,0.05834578401207519,0.03511153702059237,0.08497827879907688,0.07616963973187128
Qmin_drawdown,0.07905573873438954,0.015488033076756294,0.07028303043283449,0.005952892697902744
Qmin_summer,0.022971194364246994,0.0968045037912494,0.07816004372276406,0.08997011054483023
Qmax_recession,2.197383756737346,2.1878492997183794,2.198350969743405,0.7964344938600136
Qmax_refill,1.7024470803837342,0.9539261458465125,1.7811124947465555,0.7504050806119994
Qmax_drawdown,0.4312868092151787,0.7966458313058891,0.8703848344000238,1.8257414563145844
Qmax_summer,1.1927109364894002,2.198350969743405,0.2817944297220416,0.8506858038026537
alpha,0.2433537527780548,0.30764913795911064,0.3439840211491815,0.020392289860763385
beta,0.21096320607741992,0.4426388520315814,0.4217256098636702,0.20886052682699457
gamma,0.11131668879014842,0.20779224157718762,0.22896716233572448,0.24595863089300918
theta,0.2906679547360856,0.031546706157323995,0.3777242375570662,0.3110979454514061
