3.430183175421108038e-02
9.387029929243867477e-02
1.398437827990413052e-01
1.324588695478619849e-01
1.326274172969955367e-01
1.335398393511424697e-01
1.123878315273739020e-01
9.909494164317636522e-02
8.262202288579988119e-02
1.158649723429728967e-01
1.250691409364810824e-01
8.817307786001582492e-02
8.189043182886995842e-02
6.230024011630893449e-02
3.426757435486674913e-02
1.027326182189341047e-01
8.708540423097504979e-02
1.353215677191445809e-01
9.120170122590896822e-02
2.567766853080060210e-02
2.931530959963463828e-02
3.302943737885158382e-02
2.718218059783514273e-02
2.001273424193104541e-02
1.003283506745924758e-01
4.486718674205470575e-02
7.747387452095748361e-02
7.413417131037293439e-02
6.909999473427558270e-02
6.186305906791470660e-02
6.096810957437290984e-02
1.392995750383779763e-01
1.473770168926537283e-01
1.432753240467481426e-01
1.554711297732182806e-01
1.488246418635510437e-01
1.457738102960738358e-01
1.063342918419551419e-01
1.153286123492162502e-01
1.758917482759562723e-01
8.375626251723561344e-02
1.464753046938847836e-01
1.530996575995581532e-01
6.236831359902964694e-02
1.957667393425287228e-02
8.519340142458020626e-02
1.304006223162897382e-01
7.262474897105415661e-02
6.359464106856363430e-02
5.753553029435566624e-02
6.203480012574536656e-02
5.965855989345921623e-02
1.310838618078136453e-01
1.447620992010597019e-01
1.490870435772434777e-01
1.466817510011811654e-01
1.392763527177529603e-01
1.374708654430838728e-01
1.111958446243027088e-01
1.329268348657201004e-01
1.415314479510476897e-01
1.539890111392607508e-01
8.803624733299862670e-02
1.266733625123789286e-01
7.695224703181696713e-02
9.440089249350833156e-02
8.067519426999929244e-02
3.617936885958211030e-02
5.210733700668519069e-02
0.000000000000000000e+00
8.244422917334197354e-02
1.585406962456469004e-01
1.591494411364970107e-01
1.555087540386448641e-01
1.635423247966465155e-01
1.578791725829495618e-01
1.323524232518954180e-01
1.573297431439750760e-01
1.572131253541357021e-01
1.770454534093255927e-01
2.497955148925664615e-01
1.354800713669858381e-01
1.485554423455469064e-01
1.812676572798993246e-01
1.799796027175953883e-01
7.778853396522443508e-02
2.572485891269664093e-01
1.704319801602045548e-01
1.791065563520293780e-01
7.372142557783088745e-02
1.382033966004594383e-01
5.205254250669649752e-02
2.565272044877352497e-01
1.626084768646557654e-01
1.518042353048727755e-01
0.000000000000000000e+00
0.000000000000000000e+00
0.000000000000000000e+00
