3.105038576763942751e-02
9.194401060089164857e-02
1.639361652931293212e-01
1.233864043179886960e-01
1.324159004272336959e-01
5.721805219724238056e-02
0.000000000000000000e+00
1.239695905934561498e-01
0.000000000000000000e+00
0.000000000000000000e+00
1.931875663132839524e-02
7.655565889556131473e-03
1.400386747512324392e-01
0.000000000000000000e+00
0.000000000000000000e+00
0.000000000000000000e+00
8.716440166002935308e-02
0.000000000000000000e+00
2.263973706016190468e-01
5.843877146820218582e-02
1.735936848544876454e-01
2.511998974943135954e-01
2.947987248544758909e-01
1.805395797319523654e-01
1.162629370501207099e-01
2.462070691791213572e-01
1.457526255667835891e-01
0.000000000000000000e+00
0.000000000000000000e+00
7.852157157153064060e-02
0.000000000000000000e+00
0.000000000000000000e+00
4.551972318767683046e-02
2.533787124320219242e-01
1.865027398670830450e-01
8.738243288598755709e-02
9.633169680339541407e-02
1.332143862755945096e-01
4.458976825387084286e-02
1.800998020212309647e-01
2.659063087292024008e-01
2.001966448778171592e-01
8.050972785053885084e-02
5.433684242445790263e-02
2.543762371453404253e-03
0.000000000000000000e+00
7.136724454594749190e-02
4.101424140119930978e-02
1.738475766206576956e-01
0.000000000000000000e+00
2.436640701398508635e-01
0.000000000000000000e+00
1.852558842198038236e-01
1.983739360262498086e-01
2.064218360461589075e-01
2.486878396702810468e-01
7.110888711500058801e-02
2.254759532494964025e-02
0.000000000000000000e+00
0.000000000000000000e+00
3.209420349199396116e-02
8.476565369522683080e-02
0.000000000000000000e+00
1.106008902008171341e-01
1.056773342415197742e-01
1.720188640804773059e-02
0.000000000000000000e+00
2.128043849425909073e-01
1.925115967951974427e-01
3.572640470352913544e-01
1.155855612352335721e-01
0.000000000000000000e+00
0.000000000000000000e+00
2.055604006911899151e-01
2.225952061297351015e-01
1.048162070176796856e-01
7.400832627872950230e-03
1.356674023028913989e-01
7.388407332807740702e-02
1.198075742670532406e-01
4.855213492233100697e-02
4.277997031488508378e-02
0.000000000000000000e+00
1.032718375308569747e-01
2.666560297860721615e-02
0.000000000000000000e+00
0.000000000000000000e+00
6.559889590641053425e-02
0.000000000000000000e+00
0.000000000000000000e+00
0.000000000000000000e+00
2.881806958739989155e-01
7.825901553601602445e-02
2.116391240699912885e-02
6.501184755567979145e-02
0.000000000000000000e+00
0.000000000000000000e+00
2.603666540290964782e-01
2.842831330299118095e-02
2.374596409075314940e-01
0.000000000000000000e+00
1.158448899514260971e-01
4.274836456925153877e-02
7.898957940937290090e-02
5.000945894105914696e-02
0.000000000000000000e+00
0.000000000000000000e+00
1.163864610464289823e-01
1.359444818582156989e-01
1.985715708932185297e-01
0.000000000000000000e+00
0.000000000000000000e+00
0.000000000000000000e+00
0.000000000000000000e+00
0.000000000000000000e+00
0.000000000000000000e+00
3.462440147048732597e-01
2.772378243393094910e-01
1.807976953986663027e-01
0.000000000000000000e+00
2.633041749428439299e-02
2.456511884251850325e-02
0.000000000000000000e+00
0.000000000000000000e+00
0.000000000000000000e+00
2.715607246348445414e-01
0.000000000000000000e+00
0.000000000000000000e+00
0.000000000000000000e+00
5.169386180822623661e-02
4.608684182235204402e-02
0.000000000000000000e+00
0.000000000000000000e+00
5.106136296923058891e-03
0.000000000000000000e+00
0.000000000000000000e+00
0.000000000000000000e+00
0.000000000000000000e+00
0.000000000000000000e+00
0.000000000000000000e+00
2.533813271215577465e-02
0.000000000000000000e+00
0.000000000000000000e+00
4.463081699652033524e-02
2.810346108373323534e-02
3.917050063262414450e-02
0.000000000000000000e+00
0.000000000000000000e+00
0.000000000000000000e+00
0.000000000000000000e+00
1.896108559338052432e-02
8.650293555513369204e-02
2.641516245695057011e-02
6.295008761354002613e-02
6.431021350510851553e-02
8.227519796422599896e-02
1.012509889279003539e-01
9.421215606645692853e-02
1.344178947291886986e-02
0.000000000000000000e+00
1.234065074971393838e-01
1.135050597170165904e-01
7.729565529574425331e-02
0.000000000000000000e+00
2.139283797064786899e-02
1.068013984798762620e-04
3.181344133106148858e-02
0.000000000000000000e+00
1.923758917655870367e-03
4.652352205779505812e-02
0.000000000000000000e+00
1.562193707312571969e-02
2.326233601942162901e-02
6.004512520543231610e-04
3.350157818536501214e-02
4.794300560660968297e-02
0.000000000000000000e+00
0.000000000000000000e+00
5.893105696900563517e-02
7.767668979130376745e-04
7.578348869253038848e-03
1.143128407014484989e-02
0.000000000000000000e+00
3.707205351592923748e-02
2.960168234805888796e-02
1.152955851741208904e-01
0.000000000000000000e+00
6.902811689327355282e-02
5.100127073637761299e-02
3.332534542947829803e-01
9.245607324348156797e-02
8.529689932830870902e-02
1.370867168767200550e-01
0.000000000000000000e+00
0.000000000000000000e+00
0.000000000000000000e+00
0.000000000000000000e+00
1.132126260106570831e-01
2.039667607772534252e-02
0.000000000000000000e+00
2.543469912838560928e-02
0.000000000000000000e+00
0.000000000000000000e+00
1.627158005904131843e-01
0.000000000000000000e+00
0.000000000000000000e+00
0.000000000000000000e+00
0.000000000000000000e+00
3.750887171071593668e-02
8.780335975123827741e-02
7.565013882704070547e-02
9.649563924645149227e-02
7.031222491687039167e-02
0.000000000000000000e+00
0.000000000000000000e+00
0.000000000000000000e+00
1.066125184859276036e-02
0.000000000000000000e+00
0.000000000000000000e+00
4.911199507832118144e-03
4.470953410375009401e-02
0.000000000000000000e+00
8.966029165666454526e-02
9.088254635475398469e-02
0.000000000000000000e+00
0.000000000000000000e+00
0.000000000000000000e+00
3.555047981628688906e-04
0.000000000000000000e+00
7.994709975580097105e-02
0.000000000000000000e+00
2.557668276622477796e-02
0.000000000000000000e+00
1.395339068564788731e-01
8.599690740950405310e-02
8.624145835819040096e-02
1.667501182110463567e-02
4.855684110311689339e-02
0.000000000000000000e+00
2.457543638624427873e-02
2.003105337130286351e-02
0.000000000000000000e+00
7.484258764501021399e-02
0.000000000000000000e+00
6.932462314209841825e-02
2.044994052457732026e-01
2.314101830817872907e-01
5.495214447850859107e-01
9.896951078006738234e-01
1.000000000000000000e+00
0.000000000000000000e+00
0.000000000000000000e+00
2.255371587085646112e-01
0.000000000000000000e+00
0.000000000000000000e+00
0.000000000000000000e+00
0.000000000000000000e+00
0.000000000000000000e+00
0.000000000000000000e+00
0.000000000000000000e+00
2.751567220127767999e-02
5.990114885568688374e-02
2.890251790806369070e-01
4.238312676681717517e-01
6.346232235686085632e-01
0.000000000000000000e+00
0.000000000000000000e+00
0.000000000000000000e+00
5.764349984182329245e-02
1.962983943088799366e-01
7.272775360734157202e-02
6.508534217255934617e-02
4.262447540360835008e-02
7.993402679978420938e-03
1.170457021634581235e-01
0.000000000000000000e+00
2.704358237441384372e-01
3.077109070304489546e-01
2.345310353755427069e-01
1.577626255675987077e-01
5.367285068223585920e-02
1.810606570910071045e-01
2.543658916223482946e-01
9.592242363046420139e-02
4.709986759287677627e-01
2.195126866961629453e-01
2.798315848642555781e-01
0.000000000000000000e+00
6.474084917285341523e-02
0.000000000000000000e+00
0.000000000000000000e+00
0.000000000000000000e+00
1.455014378603455005e-01
0.000000000000000000e+00
1.281401599121628487e-01
9.672671244935338031e-02
0.000000000000000000e+00
1.644889147079232339e-01
9.959097586445285477e-02
9.914930261034930747e-02
0.000000000000000000e+00
0.000000000000000000e+00
0.000000000000000000e+00
1.241482437787651133e-01
2.114153818259164042e-01
1.519393925898656628e-01
6.101322721065202681e-02
0.000000000000000000e+00
0.000000000000000000e+00
0.000000000000000000e+00
0.000000000000000000e+00
0.000000000000000000e+00
2.129159179163895854e-01
1.641757563382872931e-01
1.291570248660414977e-01
1.386562741060189397e-01
0.000000000000000000e+00
5.500126241682567335e-02
9.085924085310270737e-02
0.000000000000000000e+00
0.000000000000000000e+00
1.359889792145392295e-01
1.130917524016340214e-01
3.379669250352462240e-01
2.198215390301042627e-01
1.950392084571087037e-01
2.429004089345919784e-02
0.000000000000000000e+00
0.000000000000000000e+00
1.791938394767719767e-01
0.000000000000000000e+00
3.868103093904193268e-01
1.366773094206960026e-01
1.795776050583170746e-01
2.206210891989758283e-01
4.916139533537556422e-02
1.201939332433709512e-01
0.000000000000000000e+00
0.000000000000000000e+00
0.000000000000000000e+00
7.544968491343314598e-01
2.541980839013241802e-02
9.402450208876539026e-03
2.143894842449575455e-01
4.002896492356060321e-02
0.000000000000000000e+00
3.114659728519833526e-01
0.000000000000000000e+00
6.800280130348905772e-01
4.065352872082349939e-02
0.000000000000000000e+00
0.000000000000000000e+00
2.053928410442904251e-01
0.000000000000000000e+00
1.665980598786217792e-01
5.224365093574845353e-02
3.813012072123543872e-01
0.000000000000000000e+00
0.000000000000000000e+00
4.395986594737273934e-01
0.000000000000000000e+00
4.909551435543373366e-01
0.000000000000000000e+00
3.674816060013644803e-01
1.834000729967973919e-01
0.000000000000000000e+00
1.072907532843113826e-01
0.000000000000000000e+00
1.243098338055642627e-01
3.426424393228070797e-01
8.957076934127443379e-02
2.598547901011341588e-01
4.336487547260581277e-01
5.906487844527852360e-01
0.000000000000000000e+00
1.199396309929326304e-01
6.488622267998969684e-02
2.980144424152549321e-01
0.000000000000000000e+00
1.927316853059049540e-02
1.392634136999571504e-01
4.825952664311453089e-01
4.437997148864931130e-01
9.880555032969509099e-01
0.000000000000000000e+00
0.000000000000000000e+00
0.000000000000000000e+00
1.157054650244318111e-01
8.683116023361185654e-02
0.000000000000000000e+00
1.141442377844584521e-01
0.000000000000000000e+00
0.000000000000000000e+00
2.592739233953970934e-02
0.000000000000000000e+00
3.350117170094813607e-02
0.000000000000000000e+00
0.000000000000000000e+00
0.000000000000000000e+00
0.000000000000000000e+00
0.000000000000000000e+00
0.000000000000000000e+00
0.000000000000000000e+00
0.000000000000000000e+00
0.000000000000000000e+00
0.000000000000000000e+00
0.000000000000000000e+00
1.515849800015087005e-02
0.000000000000000000e+00
2.269725396386025260e-02
7.077451680119131727e-02
1.679011027056847571e-01
6.772960769948614956e-01
6.154797800820205333e-01
3.451051699675976026e-01
0.000000000000000000e+00
0.000000000000000000e+00
0.000000000000000000e+00
0.000000000000000000e+00
0.000000000000000000e+00
0.000000000000000000e+00
0.000000000000000000e+00
0.000000000000000000e+00
0.000000000000000000e+00
0.000000000000000000e+00
0.000000000000000000e+00
0.000000000000000000e+00
0.000000000000000000e+00
4.219443050294589478e-03
1.298554630856298651e-02
0.000000000000000000e+00
0.000000000000000000e+00
0.000000000000000000e+00
0.000000000000000000e+00
0.000000000000000000e+00
0.000000000000000000e+00
0.000000000000000000e+00
0.000000000000000000e+00
0.000000000000000000e+00
0.000000000000000000e+00
0.000000000000000000e+00
0.000000000000000000e+00
3.014091356392352428e-02
0.000000000000000000e+00
0.000000000000000000e+00
7.355019633949711269e-03
0.000000000000000000e+00
0.000000000000000000e+00
0.000000000000000000e+00
8.881680558731923011e-03
0.000000000000000000e+00
