4.937542306595101710e-02
6.020633836770387937e-02
0.000000000000000000e+00
0.000000000000000000e+00
0.000000000000000000e+00
0.000000000000000000e+00
6.823965234506020050e-03
5.185315968710409867e-02
1.287795424182001658e-01
1.348051961810088906e-01
0.000000000000000000e+00
0.000000000000000000e+00
0.000000000000000000e+00
0.000000000000000000e+00
0.000000000000000000e+00
5.941521313397718496e-02
1.575431929938328757e-01
8.568958110210450618e-02
1.476371445529759963e-01
5.070767313738091392e-02
0.000000000000000000e+00
0.000000000000000000e+00
1.297757062724827215e-01
1.372354124186077606e-01
1.440843980325436924e-01
1.653460152915290915e-01
2.531978995521674825e-01
3.853753693198758712e-01
5.327511096172016236e-01
8.450399525533583978e-01
2.410377346201292639e-02
1.689784272655994735e-02
5.855281005046217291e-02
5.923008414981877079e-02
1.650596161500970244e-02
0.000000000000000000e+00
0.000000000000000000e+00
0.000000000000000000e+00
6.157071978480919278e-02
1.975592145135290079e-01
5.176571008924817779e-02
1.871228526174643914e-01
7.590734933002027396e-02
0.000000000000000000e+00
1.066622896162375683e-01
6.402169089221595999e-02
0.000000000000000000e+00
0.000000000000000000e+00
2.790489785490835595e-01
2.927025500971384697e-01
3.444505502531803875e-01
