,2014,2015,2016,2017
normal_level,0.0,-0.019,-0.013,-0.002
wd_level,-0.831,-0.779,-0.828,-0.774
T_startdrawdown,297.0,294.0,298.0,296.0
T_stopdrawdown,320.0,323.0,320.0,338.0
T_startrefill,449.0,439.0,480.0,468.0
T_stoprefill,518.0,468.0,494.0,482.0
Qmin_recession,0.070062494,0.027895633,0.034991493,0.005738373
Qmin_refill,0.032239722,0.006756736,0.047938401,0.007065145
Qmin_drawdown,0.055092861,0.050649954,0.002144966,0.035343031
Qmin_summer,0.006886826,0.061597137,0.018590907,0.069462319
Qmax_recession,1.76765861,1.76765861,1.76765861,1.76765861
Qmax_refill,1.189648282,1.189648282,1.352490568,0.567174643
Qmax_drawdown,1.533728319,1.533728319,0.582949162,0.817909014
Qmax_summer,1.76765861,1.76765861,0.770503068,0.860799534
alpha,17.65335818467582,63.77263585043479,18.308210325139992,13.420673405038091
beta,7.635283795366415,9.398249277225476,6.656372682929945,13.05755956505584
gamma,9.169620336709608,7.074640063184487,48.884524322328716,6.205370549983528
theta,7.605407478758693,207.85619722555722,8.118935901239453,41.65442558203902
