,2014,2015,2016,2017
normal_level,0.001,-0.11,-0.007,0.025
wd_level,-0.343,-0.32,-0.271,-0.226
T_startdrawdown,291,284,305,329
T_stopdrawdown,307,292,335,336
T_startrefill,425,430,479,477
T_stoprefill,481,554,491,485
Qmin_recession,0.005804354,0.001966144,0.009304189,0.007844172
Qmin_refill,0.004630726,0.003383258,0.003352154,0.001105124
Qmin_drawdown,0.024725179,0.004745276,0.007872681,0.008771533
Qmin_summer,0.008382176,0.010118387,0.004881204,0.002421588
Qmax_recession,0.219707892,0.219707892,0.219707892,0.219707892
Qmax_refill,0.208374368,0.039205333,0.156596468,0.142847376
Qmax_drawdown,0.214410718,0.15957032,0.156654107,0.045180834
Qmax_summer,0.219707892,0.198549495,0.219707892,0.025967006
alpha,13.5189202855765,8.75474765183629,5.62456534606968,6.61658976550656
beta,66.1216409538942,5.36121294864485,4.34666258322836,7.02879014365679
gamma,4.49424297595032,5.80733540192283,89.3611104343473,5.55416067378016
theta,4.65313277954002,4.96368600413482,19.7413823743466,46.6785949768855
