,2014,2015,2016,2017
normal_level,0.0,0.009,0.074,0.061
wd_level,-1.07,-0.883,-1.061,-1.289
T_startdrawdown,297.0,306.0,309.0,289.0
T_stopdrawdown,326.0,350.0,355.0,349.0
T_startrefill,439.0,410.0,406.0,415.0
T_stoprefill,479.0,453.0,456.0,465.0
Qmin_recession,0.057817403,0.114656298,0.073804905,0.114053617
Qmin_refill,0.054762955,0.110363897,0.110136052,0.0739737
Qmin_drawdown,0.018488506,0.088864005,0.10804773,0.110138244
Qmin_summer,0.036639781,0.10362581,0.116824664,0.131416286
Qmax_recession,1.593656148,2.998724054,2.998724054,2.998724054
Qmax_refill,1.915037808,1.230846653,2.148702058,2.924688938
Qmax_drawdown,0.152126616,0.152126616,0.452126616,0.697997627
Qmax_summer,1.944229988,2.998724054,2.998724054,0.510168408
alpha,20.879285434423462,20.673891290575607,14.063724002103633,43.47340630311025
beta,75.15807673645533,39.83484471543483,86.67289579332392,109.65792321522973
gamma,29.968601672804194,46.96637266529472,48.8250332481275,35.11699405856391
theta,18.065422868166213,95.09160688073781,22.106983492235955,6.096290401974523
