,2014,2015,2016,2017
normal_level,0.001,-0.008,0.032,0.048
wd_level,-0.636,-0.697,-0.704,-0.647
T_startdrawdown,305.0,305.0,305.0,304.0
T_stopdrawdown,320.0,323.0,324.0,330.0
T_startrefill,447.0,410.0,403.0,377.0
T_stoprefill,458.0,444.0,423.0,378.0
Qmin_recession,0.006525699,0.095997687,0.025780232,0.059245459
Qmin_refill,0.037708952,0.158803053,0.098229814,0.031122505
Qmin_drawdown,0.035145134,0.06310748,0.012092713,0.087721913
Qmin_summer,0.091670372,0.017077738,0.056965454,0.025260277
Qmax_recession,2.19835097,0.624111454,2.19371894,2.111813774
Qmax_refill,0.522200196,0.370250183,1.374731252,1.927222191
Qmax_drawdown,1.421531289,2.032840169,2.043650485,1.587351186
Qmax_summer,1.848199615,2.19835097,0.667194147,0.567712
alpha,6.7039273479157,6.579865004478247,11.389888678991802,17.953757244093282
beta,52.86009877092696,17.477591616639675,70.67193211783274,39.264329918085195
gamma,4.573515733666793,5.382909647548823,19.439861308717095,5.635644096267252
theta,7.293884497021,8.605975829169873,7.322595426908415,6.859967716642739
