,Simulated Water Levels
2014-11-01,0.0
2014-11-02,-0.08350890955368406
2014-11-03,-0.1694300681471761
2014-11-04,-0.2416763139159519
2014-11-05,-0.30264748225660654
2014-11-06,-0.35402606903590783
2014-11-07,-0.38585274549932436
2014-11-08,-0.42321968805759713
2014-11-09,-0.45423685194645635
2014-11-10,-0.4803711012203973
2014-11-11,-0.5023081107023071
2014-11-12,-0.5207150930077553
2014-11-13,-0.5362255788942152
2014-11-14,-0.5425211180945482
2014-11-15,-0.5536384007461592
2014-11-16,-0.5627132935661834
2014-11-17,-0.5551598732896235
2014-11-18,-0.5278266405834255
2014-11-19,-0.5413442098188685
2014-11-20,-0.5522699093118533
2014-11-21,-0.5616363506356681
2014-11-22,-0.5692180862045584
2014-11-23,-0.5756630104372924
2014-11-24,-0.5676530811975349
2014-11-25,-0.5607646110589366
2014-11-26,-0.5696304654606168
2014-11-27,-0.5221788644277181
2014-11-28,-0.5315252186424129
2014-11-29,-0.5442252703948185
2014-11-30,-0.5546206759559125
2014-12-01,-0.5636927552192867
2014-12-02,-0.571773553044431
2014-12-03,-0.5676524013757929
2014-12-04,-0.5687821229732508
2014-12-05,-0.5755034210198691
2014-12-06,-0.5669707254301581
2014-12-07,-0.5478979120461824
2014-12-08,-0.5579899745698356
2014-12-09,-0.5603182969546499
2014-12-10,-0.5142804960071743
2014-12-11,-0.5167692428672446
2014-12-12,-0.5290711137773627
2014-12-13,-0.5421496000867281
2014-12-14,-0.5531664756356767
2014-12-15,-0.5624016827669793
2014-12-16,-0.5701754074066825
2014-12-17,-0.5617546422502651
2014-12-18,-0.5662256558180632
2014-12-19,-0.5733415730492624
2014-12-20,-0.579166076269269
2014-12-21,-0.5824867271918741
2014-12-22,-0.5850360476829097
2014-12-23,-0.5862458562964248
2014-12-24,-0.5878372123000286
2014-12-25,-0.5721919138048577
2014-12-26,-0.5768422496409489
2014-12-27,-0.5824129481013749
2014-12-28,-0.5870164003680545
2014-12-29,-0.5888682581857161
2014-12-30,-0.5921779002528726
2014-12-31,-0.5945909719347515
2015-01-01,-0.5966023906701983
2015-01-02,-0.5982789382991269
2015-01-03,-0.5998350292111461
2015-01-04,-0.5795015942755883
2015-01-05,-0.5414799537649797
2015-01-06,-0.5087372368317196
2015-01-07,-0.4727618413274648
2015-01-08,-0.44586662248872155
2015-01-09,-0.42563466472412603
2015-01-10,-0.4059304286420442
2015-01-11,-0.3928946411804537
2015-01-12,-0.380819822134697
2015-01-13,-0.35952707262445394
2015-01-14,-0.3506504226843461
2015-01-15,-0.3419753821106237
2015-01-16,-0.33349716858341516
2015-01-17,-0.32521112286346554
2015-01-18,-0.317112705157089
2015-01-19,-0.26227555414160353
2015-01-20,-0.25527787733916174
2015-01-21,-0.23977515151772533
2015-01-22,-0.23239340423528176
2015-01-23,-0.2264299498072848
2015-01-24,-0.21020825044261038
2015-01-25,-0.19123073658020573
2015-01-26,-0.18641081258443126
2015-01-27,-0.1538487787959415
2015-01-28,-0.13674553834728798
2015-01-29,-0.13286697257131141
2015-01-30,-0.12907431662429936
2015-01-31,-0.12536563220335406
2015-02-01,-0.12173902632718736
2015-02-02,-0.10510405013689894
2015-02-03,-0.07672366957774823
2015-02-04,-0.07417051042174005
2015-02-05,-0.06438344675677676
2015-02-06,-0.056995702743989796
2015-02-07,-0.05487629674503047
2015-02-08,-0.04632031942998793
2015-02-09,-0.0318049319455076
2015-02-10,-0.015662726195296628
2015-02-11,-0.014449129123347504
2015-02-12,-0.013262067744494566
2015-02-13,-0.011032087937179469
2015-02-14,-0.009919722941533315
2015-02-15,0.0025838035198519904
2015-02-16,0.006959149573356527
2015-02-17,0.007678671625867217
2015-02-18,0.008382498243480363
2015-02-19,0.009873442497251972
2015-02-20,0.010529400394632127
2015-02-21,0.011171053766607209
2015-02-22,0.032502770661341884
2015-02-23,0.032665817668482866
2015-02-24,0.03282531743098627
2015-02-25,0.03298134718104606
2015-02-26,0.03313398246680688
2015-02-27,0.03328329718918965
2015-02-28,0.03342936363790816
2015-03-01,0.03357225252670215
2015-03-02,0.04855684181076381
2015-03-03,0.04570542749769935
2015-03-04,0.06507989648278212
2015-03-05,0.05672539060485082
2015-03-06,0.05079826587726721
2015-03-07,0.047200223189229895
2015-03-08,0.04480076225241536
2015-03-09,0.04319598458679774
2015-03-10,0.04165765797272414
2015-03-11,0.04434304212686069
2015-03-12,0.04165655275318603
2015-03-13,0.040152088365966954
2015-03-14,0.039752523460377276
2015-03-15,0.06619485955112658
2015-03-16,0.05653435528626183
2015-03-17,0.05216430708112174
2015-03-18,0.049398462185346936
2015-03-19,0.04614193632091723
2015-03-20,0.0440950706399823
2015-03-21,0.04580444832812525
2015-03-22,0.043355282910416015
2015-03-23,0.04185477800359472
2015-03-24,0.04123655939813453
2015-03-25,0.04066662500445073
2015-03-26,0.04388012285595
2015-03-27,0.06174514832988276
2015-03-28,0.053068121904925825
2015-03-29,0.05428820439907156
2015-03-30,0.048864761247030764
2015-03-31,0.04512591652107023
2015-04-01,0.04198465134953011
2015-04-02,0.040096492962163666
2015-04-03,0.04271906118379487
2015-04-04,0.05660568719105097
2015-04-05,0.10373593874605014
2015-04-06,0.19592995796520096
2015-04-07,0.22525000000000084
2015-04-08,0.22525000000000084
2015-04-09,0.22525000000000084
2015-04-10,0.22525000000000084
2015-04-11,0.22525000000000084
2015-04-12,0.22525000000000084
2015-04-13,0.22525000000000084
2015-04-14,0.22525000000000084
2015-04-15,0.22525000000000084
2015-04-16,0.2178772855851232
2015-04-17,0.20181152330538144
2015-04-18,0.17635553716218588
2015-04-19,0.13984781826833803
2015-04-20,0.1046922349386108
2015-04-21,0.12907796932461224
2015-04-22,0.11891712679843991
2015-04-23,0.14049379530203687
2015-04-24,0.13140963108121184
2015-04-25,0.09939283200794335
2015-04-26,0.07752660939426104
2015-04-27,0.06271980612850481
2015-04-28,0.05235346607948088
2015-04-29,0.04508304928137008
2015-04-30,0.040003304922238136
2015-05-01,0.03700032806331066
2015-05-02,0.03511473460735903
2015-05-03,0.033373719930156476
2015-05-04,0.03160162065891914
2015-05-05,0.029646924592462653
2015-05-06,0.02850725800860676
2015-05-07,0.027623457128736817
2015-05-08,0.027110162220315814
2015-05-09,0.026510591841930164
2015-05-10,0.026413604476266173
2015-05-11,0.025584648686709066
2015-05-12,0.02422600732394553
2015-05-13,0.02444668476583356
2015-05-14,0.02546108715166273
2015-05-15,0.026609647977156037
2015-05-16,0.02719043130205545
2015-05-17,0.027318333326335598
2015-05-18,0.02575400375486847
2015-05-19,0.028645890687914566
2015-05-20,0.03360465556312153
2015-05-21,0.031933669850978674
2015-05-22,0.030998465140304354
2015-05-23,0.02971414417674101
2015-05-24,0.02972732222043195
2015-05-25,0.028493740266514855
2015-05-26,0.02712177197287957
2015-05-27,0.025317420626437936
2015-05-28,0.023833705773071756
2015-05-29,0.027745633722039642
2015-05-30,0.026127154232565175
2015-05-31,0.04103721077475253
2015-06-01,0.0823814900267621
2015-06-02,0.1299517018373697
2015-06-03,0.10504237492234658
2015-06-04,0.07927557401310281
2015-06-05,0.0618269290978235
2015-06-06,0.04955921210276948
2015-06-07,0.04131747721258883
2015-06-08,0.03636885334359441
2015-06-09,0.03268079742766172
2015-06-10,0.046181143309337536
2015-06-11,0.03837785149912243
2015-06-12,0.03257501222032744
2015-06-13,0.03183003758297254
2015-06-14,0.028222261611321464
2015-06-15,0.05102542104453711
2015-06-16,0.07074758945332427
2015-06-17,0.05511090655664752
2015-06-18,0.04465355063413501
2015-06-19,0.0380361694911695
2015-06-20,0.03292904356683479
2015-06-21,0.06700952141900895
2015-06-22,0.07110483239961685
2015-06-23,0.05410654363400891
2015-06-24,0.05244964476468805
2015-06-25,0.04224903147735848
2015-06-26,0.038165489432052446
2015-06-27,0.03308628169566585
2015-06-28,0.06478555412144882
2015-06-29,0.0603610047126617
2015-06-30,0.048587979316319085
2015-07-01,0.05247746816870791
2015-07-02,0.05324863649301115
2015-07-03,0.04319057091984213
2015-07-04,0.036500211203327915
2015-07-05,0.03328817240024584
2015-07-06,0.029750783881034693
2015-07-07,0.027049555929650637
2015-07-08,0.025214829264617933
2015-07-09,0.023347899038480335
2015-07-10,0.046494804838337345
2015-07-11,0.03809735408140735
2015-07-12,0.03255791989225987
2015-07-13,0.02866973527580896
2015-07-14,0.026041440399970917
2015-07-15,0.024431555650269665
2015-07-16,0.022916007560225715
2015-07-17,0.023297535257004398
2015-07-18,0.023591658381596936
2015-07-19,0.0353906088246676
2015-07-20,0.030173909821087364
2015-07-21,0.026443243012352013
2015-07-22,0.02446998477141804
2015-07-23,0.023809904383661262
2015-07-24,0.023615234984297295
2015-07-25,0.027191247209765734
2015-07-26,0.02748449535576114
2015-07-27,0.026048771061716103
2015-07-28,0.024567438028460842
2015-07-29,0.023201893422378994
2015-07-30,0.022130396945985176
2015-07-31,0.04072823247321722
2015-08-01,0.03421051473386871
2015-08-02,0.03202024223806621
2015-08-03,0.02892428126784452
2015-08-04,0.028340698544555565
2015-08-05,0.03475136781561172
2015-08-06,0.030958114130095638
2015-08-07,0.028874118122051762
2015-08-08,0.027377159989181443
2015-08-09,0.02642155970229698
2015-08-10,0.025918819009859817
2015-08-11,0.02539192402509105
2015-08-12,0.05941534287136019
2015-08-13,0.04747373286877643
2015-08-14,0.03978573935073815
2015-08-15,0.034563256790039354
2015-08-16,0.04231462934039154
2015-08-17,0.035710383687013625
2015-08-18,0.031033542608316367
2015-08-19,0.02796983479087256
2015-08-20,0.026204757010689583
2015-08-21,0.024296049089432614
2015-08-22,0.032629819651356584
2015-08-23,0.029857072448298716
2015-08-24,0.02817454212350512
2015-08-25,0.027969493061830164
2015-08-26,0.025247193636045218
2015-08-27,0.022780872591269485
2015-08-28,0.020706504303955597
2015-08-29,0.018381435061128215
2015-08-30,0.01584788878876875
2015-08-31,0.012711622724030924
2015-09-01,0.009075883333774293
2015-09-02,0.005268851458175128
2015-09-03,0.0013008637584723814
2015-09-04,-0.0029592902158368517
2015-09-05,-0.007016573398552772
2015-09-06,-0.010693137000362007
2015-09-07,-0.014791628182609706
2015-09-08,-0.019387323618376584
2015-09-09,-0.02450060071593896
2015-09-10,-0.029683998638412312
2015-09-11,0.023009457954168866
2015-09-12,0.020259795470974673
2015-09-13,0.025951240707585477
2015-09-14,0.05065831765164397
2015-09-15,0.04380352834064105
2015-09-16,0.038736745436945164
2015-09-17,0.03512391057501674
2015-09-18,0.03163768268286926
2015-09-19,0.02801509504518318
2015-09-20,0.024294883273278778
2015-09-21,0.02059890639859141
2015-09-22,0.01762402390159057
2015-09-23,0.014473182698774067
2015-09-24,0.011003499488137614
2015-09-25,0.007337895909030223
2015-09-26,0.0037765507347824467
2015-09-27,0.0002756590422592353
2015-09-28,-0.0031063665754533787
2015-09-29,-0.006968739059002971
2015-09-30,0.035084335193550586
2015-10-01,0.08052117441280515
2015-10-02,0.06768284934979985
2015-10-03,0.06476471444636367
2015-10-04,0.05822890460830532
2015-10-05,0.05015444668780589
2015-10-06,0.04461972009702375
2015-10-07,0.04085608652946249
2015-10-08,0.03826335438742845
2015-10-09,0.03662496346828714
2015-10-10,0.043854036233570426
2015-10-11,0.04054468709175296
2015-10-12,0.03835047151290816
2015-10-13,0.03654952040303172
2015-10-14,0.03631220006297475
2015-10-15,0.03524415574535755
2015-10-16,0.035261299702985305
2015-10-17,0.036531424628178044
2015-10-18,0.03655842617589755
2015-10-19,0.03692419750717857
2015-10-20,0.03729618019452463
2015-10-21,0.036834741242526725
2015-10-22,0.035834611302508534
2015-10-23,0.03495855342780274
2015-10-24,0.035322190042917256
2015-10-25,0.03863965547771109
2015-10-26,0.03933057422170183
2015-10-27,0.03841520057128456
2015-10-28,0.03783215783463234
2015-10-29,0.09510395372807601
2015-10-30,0.07826730615696853
2015-10-31,0.06406897772768794
2015-11-01,0.055033274681003164
2015-11-02,-0.05313947522013063
2015-11-03,-0.14459461360779624
2015-11-04,-0.22153331703637846
2015-11-05,-0.2861444934142847
2015-11-06,-0.3403952593644517
2015-11-07,-0.3861257341104736
2015-11-08,-0.4240581935234671
2015-11-09,-0.4553103184143197
2015-11-10,-0.4813072233250786
2015-11-11,-0.49562189432162995
2015-11-12,-0.5109914472019783
2015-11-13,-0.520783178417882
2015-11-14,-0.5342392284645721
2015-11-15,-0.5470044704873036
2015-11-16,-0.5577487140206028
2015-11-17,-0.5668813326180722
2015-11-18,-0.5741072271238838
2015-11-19,-0.5800479525711939
2015-11-20,-0.540591390586247
2015-11-21,-0.5527277998309907
2015-11-22,-0.5611793303271657
2015-11-23,-0.5685670039733184
2015-11-24,-0.5754353266064882
2015-11-25,-0.580880060626142
2015-11-26,-0.5855786370275036
2015-11-27,-0.5897390879800639
2015-11-28,-0.5936355856992384
2015-11-29,-0.5884928373736216
2015-11-30,-0.5920917830951673
2015-12-01,-0.5948275226434898
2015-12-02,-0.5866974885238907
2015-12-03,-0.5818750393273255
2015-12-04,-0.5867566962816131
2015-12-05,-0.5906302702897221
2015-12-06,-0.5939215570527683
2015-12-07,-0.5966997283447117
2015-12-08,-0.5990113663791794
2015-12-09,-0.6007801077531383
2015-12-10,-0.6014423360114662
2015-12-11,-0.6031068650364633
2015-12-12,-0.6045851165449907
2015-12-13,-0.6058712701279294
2015-12-14,-0.6069607420074119
2015-12-15,-0.5826933642403125
2015-12-16,-0.5876778897143611
2015-12-17,-0.5888619485969535
2015-12-18,-0.5696780650205531
2015-12-19,-0.576551156911159
2015-12-20,-0.5819748940168052
2015-12-21,-0.5864570139746297
2015-12-22,-0.5878710594130601
2015-12-23,-0.578592947224851
2015-12-24,-0.5456943861485088
2015-12-25,-0.5569307723124588
2015-12-26,-0.5663251985634243
2015-12-27,-0.568920147044512
2015-12-28,-0.5744122549949395
2015-12-29,-0.5631547919901942
2015-12-30,-0.5595019569265203
2015-12-31,-0.560055561173753
2016-01-01,-0.5682436934979025
2016-01-02,-0.575047659773058
2016-01-03,-0.580617868214726
2016-01-04,-0.5853125133929975
2016-01-05,-0.5513016234421402
2016-01-06,-0.519172723809092
2016-01-07,-0.48884550024294704
2016-01-08,-0.4603227024513554
2016-01-09,-0.4334194772315909
2016-01-10,-0.40543180678588975
2016-01-11,-0.3434149332293499
2016-01-12,-0.32311963970540436
2016-01-13,-0.2779314232021921
2016-01-14,-0.2561454186151222
2016-01-15,-0.2403163108214823
2016-01-16,-0.21726818302046613
2016-01-17,-0.1934282934799425
2016-01-18,-0.17936676726440837
2016-01-19,-0.16768947657763622
2016-01-20,-0.15664061256432316
2016-01-21,-0.14618563041381627
2016-01-22,-0.13629196219255313
2016-01-23,-0.1269288952553289
2016-01-24,-0.10859246023294666
2016-01-25,-0.10080902916575063
2016-01-26,-0.0934854719639242
2016-01-27,-0.08676386414100357
2016-01-28,-0.08057784520447697
2016-01-29,-0.07440890063282435
2016-01-30,-0.06859442176925867
2016-01-31,-0.06316064830591817
2016-02-01,-0.05847474222600901
2016-02-02,-0.05436357497825295
2016-02-03,-0.05000041540971889
2016-02-04,-0.02177353844418395
2016-02-05,-0.0044955009903384635
2016-02-06,0.04328037061441847
2016-02-07,0.04213570880804163
2016-02-08,0.04105925782705544
2016-02-09,0.053050338742384184
2016-02-10,0.050494566019608556
2016-02-11,0.04906267739481418
2016-02-12,0.046042756620840564
2016-02-13,0.044028936542789054
2016-02-14,0.0426861498314457
2016-02-15,0.04179085197159971
2016-02-16,0.053228975952512414
2016-02-17,0.06709288747725939
2016-02-18,0.05744104351030188
2016-02-19,0.05143185470973766
2016-02-20,0.04825900358660551
2016-02-21,0.044694746434369215
2016-02-22,0.04184952188114632
2016-02-23,0.04044058613766577
2016-02-24,0.05090139896252044
2016-02-25,0.11235319503444163
2016-02-26,0.09106627964569469
2016-02-27,0.10841478117968517
2016-02-28,0.10471324061458187
2016-02-29,0.08218573719484201
2016-03-01,0.06809458099506571
2016-03-02,0.07475085256354674
2016-03-03,0.06647831685802608
2016-03-04,0.05765129519286827
2016-03-05,0.051661612837422766
2016-03-06,0.047501142349843484
2016-03-07,0.04442218429654865
2016-03-08,0.04206393263138786
2016-03-09,0.03978779691814882
2016-03-10,0.03744913407214945
2016-03-11,0.0475130996493176
2016-03-12,0.04265050062075737
2016-03-13,0.04017386152492364
2016-03-14,0.0380447676229565
2016-03-15,0.06587126586528758
2016-03-16,0.05940979937935609
2016-03-17,0.056582531159097726
2016-03-18,0.05141905264359181
2016-03-19,0.046102536311370734
2016-03-20,0.04319403136124844
2016-03-21,0.0519026624206651
2016-03-22,0.049469665622291714
2016-03-23,0.04513389941976875
2016-03-24,0.043387057834966214
2016-03-25,0.042066128626444765
2016-03-26,0.04430096487904134
2016-03-27,0.04134450217655328
2016-03-28,0.04173555517195382
2016-03-29,0.07349392947249367
2016-03-30,0.06070225526985418
2016-03-31,0.05216716342173022
2016-04-01,0.05465618758154811
2016-04-02,0.05354937662741488
2016-04-03,0.07049062317796828
2016-04-04,0.06767735180721868
2016-04-05,0.07108476351138115
2016-04-06,0.060451762732837366
2016-04-07,0.052939687637303834
2016-04-08,0.07787453719403725
2016-04-09,0.06341030823880711
2016-04-10,0.054280244345282114
2016-04-11,0.04825549728139933
2016-04-12,0.046788218173245966
2016-04-13,0.05333692796770695
2016-04-14,0.04701331627825933
2016-04-15,0.04255988752263207
2016-04-16,0.039420798066811535
2016-04-17,0.03719383913680652
2016-04-18,0.03506254448164903
2016-04-19,0.03314327214346324
2016-04-20,0.03249939927182144
2016-04-21,0.03219874496403197
2016-04-22,0.0315257320356519
2016-04-23,0.039907909967626054
2016-04-24,0.03609319914875275
2016-04-25,0.03463833966851837
2016-04-26,0.033831237949434545
2016-04-27,0.04397098784697384
2016-04-28,0.04007292536815488
2016-04-29,0.03749678848127669
2016-04-30,0.03567546380735642
2016-05-01,0.033901379875997506
2016-05-02,0.03806459341538204
2016-05-03,0.058561271990345
2016-05-04,0.053759627026639834
2016-05-05,0.05041825086320806
2016-05-06,0.05114263024276067
2016-05-07,0.05174269700363432
2016-05-08,0.048759094559256866
2016-05-09,0.052621611535997204
2016-05-10,0.04497083641830901
2016-05-11,0.040057032140321525
2016-05-12,0.035857852812212876
2016-05-13,0.032522210696155796
2016-05-14,0.037814051682650174
2016-05-15,0.03653641335443503
2016-05-16,0.03420936973528654
2016-05-17,0.03323588259509869
2016-05-18,0.03173570749268695
2016-05-19,0.030415356746293476
2016-05-20,0.03412671289006308
2016-05-21,0.03170305563095788
2016-05-22,0.030157679865297382
2016-05-23,0.02887926595484469
2016-05-24,0.035922082426742996
2016-05-25,0.034187012567024944
2016-05-26,0.030573068401552383
2016-05-27,0.027722526953577464
2016-05-28,0.02552429879919149
2016-05-29,0.02352502345719909
2016-05-30,0.032584338669131796
2016-05-31,0.03559314585284312
2016-06-01,0.03088978302147538
2016-06-02,0.028330327766801666
2016-06-03,0.02699885963255433
2016-06-04,0.02643488628279922
2016-06-05,0.02650962050804928
2016-06-06,0.061914537338745745
2016-06-07,0.049438615980341716
2016-06-08,0.042584980088140156
2016-06-09,0.036856358651577104
2016-06-10,0.033375433417956124
2016-06-11,0.030826541100097415
2016-06-12,0.04897533070667137
2016-06-13,0.040923622296404005
2016-06-14,0.03597644102566555
2016-06-15,0.03221529921232502
2016-06-16,0.029136503019904225
2016-06-17,0.02679148852431723
2016-06-18,0.02540352239522914
2016-06-19,0.024665501999565187
2016-06-20,0.024092818935958604
2016-06-21,0.02474029233108954
2016-06-22,0.023727734178097037
2016-06-23,0.024568569022446418
2016-06-24,0.024221722182006467
2016-06-25,0.023736589520573226
2016-06-26,0.023237108320169675
2016-06-27,0.022690411923516507
2016-06-28,0.030341548027154275
2016-06-29,0.04000035080779352
2016-06-30,0.03696813141386723
2016-07-01,0.03168376625120839
2016-07-02,0.04063292537536789
2016-07-03,0.03470330215002537
2016-07-04,0.03090286087969396
2016-07-05,0.03585698185820796
2016-07-06,0.031078493104265803
2016-07-07,0.02712127031157685
2016-07-08,0.04881101321791803
2016-07-09,0.03984269624235903
2016-07-10,0.04142746117576479
2016-07-11,0.0419753802441587
2016-07-12,0.03569425380791724
2016-07-13,0.03126503794430047
2016-07-14,0.03911046613882618
2016-07-15,0.04406020591306703
2016-07-16,0.03563717492347873
2016-07-17,0.030362551340010313
2016-07-18,0.025090785291619788
2016-07-19,0.019688761449507375
2016-07-20,0.014715935243405198
2016-07-21,0.01026029925087446
2016-07-22,0.00506756481472781
2016-07-23,0.003950554571861886
2016-07-24,-0.0026420921167868983
2016-07-25,-0.008811092379044538
2016-07-26,-0.015373085220461213
2016-07-27,-0.022004815982012538
2016-07-28,-0.02879780612624483
2016-07-29,-0.027549511161846674
2016-07-30,-0.02952358608428618
2016-07-31,-0.03246575451461098
2016-08-01,-0.03429905032524516
2016-08-02,-0.014587441275356383
2016-08-03,-0.010036942432559925
2016-08-04,-0.01584357730005337
2016-08-05,-0.021992047989611407
2016-08-06,-0.028676990064322005
2016-08-07,-0.029958229429494665
2016-08-08,-0.037176798578960835
2016-08-09,-0.0443212219052489
2016-08-10,-0.05153258409589956
2016-08-11,-0.034223597299883224
2016-08-12,-0.042223826433059664
2016-08-13,-0.031326092077667234
2016-08-14,0.02487912137929449
2016-08-15,0.030100105466305926
2016-08-16,0.02740115851279956
2016-08-17,0.03600636570955462
2016-08-18,0.031777097851058755
2016-08-19,0.028230897200999472
2016-08-20,0.023814309865546335
2016-08-21,0.018964664550744637
2016-08-22,0.06432292321039768
2016-08-23,0.05128509948738191
2016-08-24,0.04320143874020044
2016-08-25,0.03741335761212117
2016-08-26,0.03328578396758353
2016-08-27,0.0299134370142351
2016-08-28,0.027808711091227067
2016-08-29,0.025716358473042433
2016-08-30,0.023259061016301708
2016-08-31,0.021361672916096808
2016-09-01,0.05409569208404541
2016-09-02,0.05551900735033488
2016-09-03,0.045995401168092975
2016-09-04,0.04004959963515731
2016-09-05,0.035985898880364964
2016-09-06,0.03328385315109905
2016-09-07,0.03560763325850402
2016-09-08,0.03555509547016911
2016-09-09,0.03466917300662242
2016-09-10,0.0312118422960177
2016-09-11,0.02913041634335478
2016-09-12,0.03562891846501781
2016-09-13,0.03359485876526769
2016-09-14,0.032003100734645074
2016-09-15,0.03011688585756911
2016-09-16,0.028831335533769042
2016-09-17,0.027392337179604986
2016-09-18,0.025711023062407357
2016-09-19,0.028843630830016842
2016-09-20,0.036500286668889714
2016-09-21,0.03345560017778748
2016-09-22,0.03128906688129973
2016-09-23,0.028441955384360007
2016-09-24,0.04175123499468647
2016-09-25,0.03824962668892162
2016-09-26,0.03639101618040286
2016-09-27,0.04976731489163466
2016-09-28,0.043919016689978996
2016-09-29,0.04003358467188178
2016-09-30,0.03748582527482647
2016-10-01,0.057263190149400955
2016-10-02,0.05070430804951798
2016-10-03,0.04473949466797489
2016-10-04,0.04114625899263835
2016-10-05,0.03827828653115972
2016-10-06,0.03660953437867054
2016-10-07,0.03507616446762807
2016-10-08,0.03335246598795916
2016-10-09,0.04629511407695652
2016-10-10,0.06522159531583416
2016-10-11,0.05509337852141627
2016-10-12,0.04836676772244708
2016-10-13,-0.17237949969055855
2016-10-14,-0.4018263336272385
2016-10-15,-0.5578121990382154
2016-10-16,-0.6367580183037509
2016-10-17,-0.6767480482962656
2016-10-18,-0.6972468547135593
2016-10-19,-0.707677839990013
2016-10-20,-0.7131609594040969
2016-10-21,-0.7152686058091957
2016-10-22,-0.6766663300597271
2016-10-23,-0.6920884604300506
2016-10-24,-0.7041141877510748
2016-10-25,-0.7101311659405276
2016-10-26,-0.712700695311324
2016-10-27,-0.7137880827769703
2016-10-28,-0.6775777337743802
2016-10-29,-0.6962254396970513
2016-10-30,-0.7059974679326606
2016-10-31,-0.7028429419006521
2016-11-01,-0.7091222816059206
2016-11-02,-0.7121503208729978
2016-11-03,-0.7140727279606951
2016-11-04,-0.7153835362579892
2016-11-05,-0.7156187862429055
2016-11-06,-0.7117104490729496
2016-11-07,-0.7133221167922938
2016-11-08,-0.7141096316895563
2016-11-09,-0.7148487575138445
2016-11-10,-0.7149813770354658
2016-11-11,-0.7149854125969304
2016-11-12,-0.7151338373067455
2016-11-13,-0.7148759837031076
2016-11-14,-0.7150521750733558
2016-11-15,-0.7151430040999784
2016-11-16,-0.6848517259353883
2016-11-17,-0.7001256000720337
2016-11-18,-0.7076603618705768
2016-11-19,-0.7115819284827651
2016-11-20,-0.6985515006138332
2016-11-21,-0.7047083922813178
2016-11-22,-0.7092841211393264
2016-11-23,-0.7116660907315291
2016-11-24,-0.7128737373566283
2016-11-25,-0.7102318481105501
2016-11-26,-0.7109628919431161
2016-11-27,-0.7128186733182833
2016-11-28,-0.7135879329452663
2016-11-29,-0.7139138973684824
2016-11-30,-0.6840135810996628
2016-12-01,-0.6676611278160998
2016-12-02,-0.6913894655889896
2016-12-03,-0.7029545241484074
2016-12-04,-0.7086285838118798
2016-12-05,-0.7081754811923151
2016-12-06,-0.7093519849368599
2016-12-07,-0.7080079448718308
2016-12-08,-0.7110619718185234
2016-12-09,-0.7125772629749125
2016-12-10,-0.713149475094875
2016-12-11,-0.7132414037045027
2016-12-12,-0.7030827523731009
2016-12-13,-0.6989705545735863
2016-12-14,-0.7065220146486038
2016-12-15,-0.7102034851539694
2016-12-16,-0.7117682616053616
2016-12-17,-0.7078134924337025
2016-12-18,-0.6907361812756543
2016-12-19,-0.6986786444171065
2016-12-20,-0.7060027554074111
2016-12-21,-0.709667234772204
2016-12-22,-0.7115000814989729
2016-12-23,-0.7126465271045488
2016-12-24,-0.7133931176631858
2016-12-25,-0.6956892238087109
2016-12-26,-0.704990816623658
2016-12-27,-0.7078332120098167
2016-12-28,-0.7110759540683551
2016-12-29,-0.7126165926139132
2016-12-30,-0.6857411744193849
2016-12-31,-0.6997517178337942
2017-01-01,-0.7067869769623005
2017-01-02,-0.7103272823667064
2017-01-03,-0.7099940651515801
2017-01-04,-0.6879924731958056
2017-01-05,-0.6995914361864823
2017-01-06,-0.7041898850068646
2017-01-07,-0.708788291375809
2017-01-08,-0.6971921099133942
2017-01-09,-0.7052587994040342
2017-01-10,-0.7092950841689873
2017-01-11,-0.698398235717522
2017-01-12,-0.697754652064237
2017-01-13,-0.7034321280176368
2017-01-14,-0.7090204982666748
2017-01-15,-0.7111766354934366
2017-01-16,-0.7123439674570777
2017-01-17,-0.7129483799025937
2017-01-18,-0.6976768231659323
2017-01-19,-0.7045215869190784
2017-01-20,-0.7095624990432476
2017-01-21,-0.7119065020274826
2017-01-22,-0.7134140812972634
2017-01-23,-0.7140951815872976
2017-01-24,-0.6848338276246908
2017-01-25,-0.6909892540414955
2017-01-26,-0.7026954562728944
2017-01-27,-0.7048766757760108
2017-01-28,-0.7096854990480521
2017-01-29,-0.7119617300681274
2017-01-30,-0.6706532859369849
2017-01-31,-0.6313815821328701
2017-02-01,-0.5880053659487281
2017-02-02,-0.553477780793596
2017-02-03,-0.520909300397804
2017-02-04,-0.48998218175229
2017-02-05,-0.46078487375325494
2017-02-06,-0.433335198914345
2017-02-07,-0.40759633808720075
2017-02-08,-0.37296770202727103
2017-02-09,-0.34278815873192503
2017-02-10,-0.28353233328092387
2017-02-11,-0.26103736663151444
2017-02-12,-0.2444536946907565
2017-02-13,-0.20521173460871545
2017-02-14,-0.19175085192124186
2017-02-15,-0.17899349652872498
2017-02-16,-0.16565564067016414
2017-02-17,-0.15458025557754596
2017-02-18,-0.14404295814285106
2017-02-19,-0.13456379609597668
2017-02-20,-0.1259777463641676
2017-02-21,-0.11753650249115655
2017-02-22,-0.10924687781014253
2017-02-23,-0.10191107312016623
2017-02-24,-0.09559877823748142
2017-02-25,-0.08777496092647574
2017-02-26,-0.06396133306663021
2017-02-27,-0.045833823805523366
2017-02-28,-0.02584132503004799
2017-03-01,-0.012797482733345689
2017-03-02,-0.005261260689121805
2017-03-03,-0.0015618586441412674
2017-03-04,0.0007773881219987899
2017-03-05,0.0033216296726195083
2017-03-06,0.005731323962529622
2017-03-07,0.007805931247888864
2017-03-08,0.015786814868106624
2017-03-09,0.015848509507553565
2017-03-10,0.01869689007739428
2017-03-11,0.023742693040881058
2017-03-12,0.025073723217147403
2017-03-13,0.026334524632007472
2017-03-14,0.035964535912462736
2017-03-15,0.08519920758158683
2017-03-16,0.07314824563693101
2017-03-17,0.06510570974726537
2017-03-18,0.059236160893668455
2017-03-19,0.05542436002456608
2017-03-20,0.052799085263742995
2017-03-21,0.0502063151916472
2017-03-22,0.048412686807322025
2017-03-23,0.04812224575598023
2017-03-24,0.04834786733065943
2017-03-25,0.048832024670837804
2017-03-26,0.04940240314471378
2017-03-27,0.05061084275080319
2017-03-28,0.06634178376584288
2017-03-29,0.0832558824214722
2017-03-30,0.07005298057812936
2017-03-31,0.062358318925655354
2017-04-01,0.10785644421060869
2017-04-02,0.10274202582209746
2017-04-03,0.09600896265645353
2017-04-04,0.11919442189342977
2017-04-05,0.1621716182097357
2017-04-06,0.22173828882350755
2017-04-07,0.22525000000000084
2017-04-08,0.22525000000000084
2017-04-09,0.22525000000000084
2017-04-10,0.22525000000000084
2017-04-11,0.22525000000000084
2017-04-12,0.22525000000000084
2017-04-13,0.22525000000000084
2017-04-14,0.22525000000000084
2017-04-15,0.22475555434779704
2017-04-16,0.21763288783420354
2017-04-17,0.20601846925061107
2017-04-18,0.1835487677687322
2017-04-19,0.1576089809675958
2017-04-20,0.13197852121091014
2017-04-21,0.11296621955352304
2017-04-22,0.0956777142783487
2017-04-23,0.07866371467232458
2017-04-24,0.06552264410801811
2017-04-25,0.058717934932104754
2017-04-26,0.07683389357578019
2017-04-27,0.0690603082231025
2017-04-28,0.06071931304919875
2017-04-29,0.051665516412541024
2017-04-30,0.04551638169149275
2017-05-01,0.05129642181205796
2017-05-02,0.05087918178711526
2017-05-03,0.04739473899634916
2017-05-04,0.044606579359776966
2017-05-05,0.046651372501718136
2017-05-06,0.08112798351110317
2017-05-07,0.06890288213764428
2017-05-08,0.060479030027798864
2017-05-09,0.05416651561466157
2017-05-10,0.05001366322439793
2017-05-11,0.04700432858629
2017-05-12,0.04442983722092908
2017-05-13,0.042807309164956564
2017-05-14,0.0916780779389672
2017-05-15,0.08256746842299378
2017-05-16,0.07329676050196632
2017-05-17,0.060497117819622304
2017-05-18,0.05085946190831159
2017-05-19,0.049016963402964464
2017-05-20,0.042561707403176996
2017-05-21,0.039959261146250036
2017-05-22,0.040709840949936016
2017-05-23,0.044053037022624864
2017-05-24,0.04126688728866501
2017-05-25,0.03936312639290307
2017-05-26,0.09175456409260985
2017-05-27,0.08356206403202737
2017-05-28,0.06750551152456019
2017-05-29,0.05663778386317109
2017-05-30,0.054701723382309275
2017-05-31,0.05013132354234706
2017-06-01,0.05793977823304797
2017-06-02,0.04978152120453405
2017-06-03,0.0450722382197668
2017-06-04,0.042217413344966204
2017-06-05,0.05181473698706629
2017-06-06,0.06866178419616631
2017-06-07,0.08526990006864033
2017-06-08,0.06851131020969348
2017-06-09,0.056997747809799826
2017-06-10,0.049155506272983374
2017-06-11,0.0433571118474152
2017-06-12,0.038656205269044897
2017-06-13,0.03484791672911847
2017-06-14,0.03229145204791095
2017-06-15,0.031488643994706855
2017-06-16,0.03217652083672462
2017-06-17,0.04846135144302455
2017-06-18,0.04308969662046369
2017-06-19,0.038679084925536955
2017-06-20,0.06582782397584719
2017-06-21,0.05349820074426237
2017-06-22,0.04598430903333206
2017-06-23,0.041022569240547035
2017-06-24,0.03716947662214487
2017-06-25,0.039461437709964464
2017-06-26,0.04418122923535073
2017-06-27,0.040285201800853265
2017-06-28,0.05060402558564814
2017-06-29,0.04497253947663893
2017-06-30,0.040867679541929824
2017-07-01,0.05143681863518257
2017-07-02,0.043767993844024744
2017-07-03,0.04738606027371084
2017-07-04,0.04135061402720375
2017-07-05,0.037731307034325035
2017-07-06,0.03530219749786756
2017-07-07,0.03403477906044383
2017-07-08,0.06211865996564825
2017-07-09,0.05923955642883527
2017-07-10,0.04993091591410881
2017-07-11,0.052908378497429354
2017-07-12,0.050109652556341366
2017-07-13,0.06752986885076151
2017-07-14,0.06798231947292077
2017-07-15,0.05937377129129118
2017-07-16,0.050027984935890224
2017-07-17,0.04321394981492688
2017-07-18,0.038702683716168806
2017-07-19,0.07792257499096422
2017-07-20,0.06117264769778252
2017-07-21,0.05021565761780433
2017-07-22,0.04309291366232326
2017-07-23,0.038637036573649475
2017-07-24,0.04248369847693567
2017-07-25,0.0777603031582359
2017-07-26,0.06525530867969476
2017-07-27,0.05452843632537707
2017-07-28,0.05072777096471626
2017-07-29,0.044231915657538146
2017-07-30,0.04051380957674944
2017-07-31,0.03806685661395193
2017-08-01,0.03597292710169864
2017-08-02,0.034266315172716943
2017-08-03,0.04415488761679143
2017-08-04,0.03988597876914568
2017-08-05,0.04411860055998851
2017-08-06,0.07776680820847837
2017-08-07,0.06317728193281269
2017-08-08,0.05534134068049301
2017-08-09,0.04814580551426939
2017-08-10,0.04322885197092763
2017-08-11,0.03971655343635394
2017-08-12,0.04402294844212573
2017-08-13,0.04052531618629729
2017-08-14,0.03780748767176689
2017-08-15,0.03631384610359856
2017-08-16,0.03554704117851326
2017-08-17,0.03423071224715457
2017-08-18,0.033115713412513514
2017-08-19,0.03453207632601352
2017-08-20,0.03172476422968096
2017-08-21,0.028770214042000752
2017-08-22,0.02560788166351813
2017-08-23,0.029123182158806493
2017-08-24,0.025225101048562237
2017-08-25,0.021827988404654164
2017-08-26,0.018151786013215876
2017-08-27,0.014516176416222493
2017-08-28,0.010396311919560475
2017-08-29,0.006005985567878902
2017-08-30,0.005167717335649691
2017-08-31,0.00021802545039850685
2017-09-01,-0.005109481947199512
2017-09-02,-0.009990523752570368
2017-09-03,-0.010503909057422156
2017-09-04,0.004338900988959615
2017-09-05,-0.001618232517514251
2017-09-06,-0.004850115991707149
2017-09-07,0.049691703326836034
2017-09-08,0.048334246091464195
2017-09-09,0.04508210452150774
2017-09-10,0.043040331447707914
2017-09-11,0.03968426903544131
2017-09-12,0.035668034780456104
2017-09-13,0.031030334160918827
2017-09-14,0.02595403659334483
2017-09-15,0.022969075594756916
2017-09-16,0.016857906620137086
2017-09-17,0.010500753017035791
2017-09-18,0.00500476368304259
2017-09-19,-0.0013482867474001736
2017-09-20,-0.00767007128187025
2017-09-21,-0.014327909994578114
2017-09-22,-0.02135155301951741
2017-09-23,-0.028261298676813595
2017-09-24,-0.03580862902852022
2017-09-25,-0.043896415605130024
2017-09-26,-0.05218324268175056
2017-09-27,-0.06065812313706953
2017-09-28,-0.06922310392778197
2017-09-29,-0.07744866755148916
2017-09-30,-0.08343841656497375
2017-10-01,-0.08922324861191644
2017-10-02,-0.09653969114965744
2017-10-03,-0.10422653526193937
2017-10-04,-0.11214290652226655
2017-10-05,-0.12045422108439752
2017-10-06,-0.12925838520158628
2017-10-07,-0.13816451706494792
2017-10-08,-0.14736406226732424
2017-10-09,-0.14554534352591375
2017-10-10,-0.14121130198053855
2017-10-11,-0.15034456001704743
2017-10-12,-0.15651388108368902
2017-10-13,-0.1652825157393476
2017-10-14,-0.1738294364241968
2017-10-15,-0.18285304179233997
2017-10-16,-0.18965560507794788
2017-10-17,-0.2701558691805692
2017-10-18,-0.33430154830211034
2017-10-19,-0.3863153328881319
2017-10-20,-0.4283838541517211
2017-10-21,-0.4622121474384997
2017-10-22,-0.4894785154919168
2017-10-23,-0.5114113712024446
2017-10-24,-0.5221505673101507
2017-10-25,-0.480520425064487
2017-10-26,-0.4678536611651092
2017-10-27,-0.4552381736770519
2017-10-28,-0.48319666209853196
2017-10-29,-0.5057456131809595
2017-10-30,-0.4121793272958545
2017-10-31,-0.44391394810988416
2017-11-01,-0.4739807669556617
2017-11-02,-0.49660171530006814
2017-11-03,-0.516324406289872
2017-11-04,-0.5326780284389843
2017-11-05,-0.5451596923958402
2017-11-06,-0.5544088172179578
2017-11-07,-0.5577602105620567
2017-11-08,-0.5621676053686686
2017-11-09,-0.568239871314332
2017-11-10,-0.5723166366645707
2017-11-11,-0.5760587137241044
2017-11-12,-0.5786498957584332
2017-11-13,-0.5809641076349195
2017-11-14,-0.5801235229954997
2017-11-15,-0.5823508504007382
2017-11-16,-0.5841067325876814
2017-11-17,-0.5746019470760109
2017-11-18,-0.5780617021962433
2017-11-19,-0.5676770893051604
2017-11-20,-0.5682641055686668
2017-11-21,-0.5729042510386018
2017-11-22,-0.5767591144290822
2017-11-23,-0.5636789749357796
2017-11-24,-0.5691043172529531
2017-11-25,-0.5735029723380327
2017-11-26,-0.5772048386719844
2017-11-27,-0.5801953984143662
2017-11-28,-0.5823383077788042
2017-11-29,-0.5839352752116742
2017-11-30,-0.5855003134931502
2017-12-01,-0.5841185486722633
2017-12-02,-0.5855022044857972
2017-12-03,-0.5865558181582768
2017-12-04,-0.5873408851089188
2017-12-05,-0.5880870663606705
2017-12-06,-0.5599991018476285
2017-12-07,-0.5664930345479329
2017-12-08,-0.5713357124502423
2017-12-09,-0.5750618914754275
2017-12-10,-0.5571180072702182
2017-12-11,-0.5636723626286484
2017-12-12,-0.5689048893363857
2017-12-13,-0.5651337408509782
2017-12-14,-0.5681971989513919
2017-12-15,-0.5722681353007655
2017-12-16,-0.5747034982542463
2017-12-17,-0.5774752715324087
2017-12-18,-0.5796933419729395
2017-12-19,-0.5814682158713458
2017-12-20,-0.5832996855874226
2017-12-21,-0.5848355322758865
2017-12-22,-0.585803160246936
2017-12-23,-0.5839078413039243
2017-12-24,-0.565838587055504
2017-12-25,-0.563766735857155
2017-12-26,-0.5624893439909382
2017-12-27,-0.5676993585530523
2017-12-28,-0.5718696698456194
2017-12-29,-0.5752073931850514
2017-12-30,-0.5778785167128824
2017-12-31,-0.5780285463129999
2018-01-01,-0.5801360746138284
2018-01-02,-0.5818224742437339
2018-01-03,-0.583171835389007
2018-01-04,-0.582182561533882
2018-01-05,-0.5525040744358378
2018-01-06,-0.5597053177447702
2018-01-07,-0.5654707005697581
2018-01-08,-0.5700858219417189
2018-01-09,-0.5726139444927165
2018-01-10,-0.575973869299717
2018-01-11,-0.5785257851157022
2018-01-12,-0.5808353581680867
2018-01-13,-0.5228292580686098
2018-01-14,-0.5107321295691882
2018-01-15,-0.48074958204149176
2018-01-16,-0.4684516355760664
2018-01-17,-0.45404627199927194
2018-01-18,-0.43869667168491944
2018-01-19,-0.42743935798281196
2018-01-20,-0.4164408359572107
2018-01-21,-0.40592015544295457
2018-01-22,-0.39487322332567043
2018-01-23,-0.3817610109318661
2018-01-24,-0.3418800073372399
2018-01-25,-0.33338295691713515
2018-01-26,-0.3064145084823542
2018-01-27,-0.2972619226126376
2018-01-28,-0.28353579291345365
2018-01-29,-0.2765419496546748
2018-01-30,-0.2660126221150101
2018-01-31,-0.2579399601480423
2018-02-01,-0.24897547533826447
2018-02-02,-0.2279371791428657
2018-02-03,-0.22166198124463854
2018-02-04,-0.21533368900492356
2018-02-05,-0.18459362118525213
2018-02-06,-0.17954891484154611
2018-02-07,-0.17310234999307106
2018-02-08,-0.14085547783067742
2018-02-09,-0.1363311506495366
2018-02-10,-0.1319073473082879
2018-02-11,-0.10997343343659338
2018-02-12,-0.07560130981838675
2018-02-13,-0.056159525977871105
2018-02-14,0.005416053353457073
2018-02-15,0.05187104133391163
2018-02-16,0.07416876488499735
2018-02-17,0.07169833930249414
2018-02-18,0.08789778445986407
2018-02-19,0.08165123482477998
2018-02-20,0.08485560142469595
2018-02-21,0.07871146111101535
2018-02-22,0.07299694623588238
2018-02-23,0.07385253083871657
2018-02-24,0.08137401399006983
2018-02-25,0.0816465675524114
2018-02-26,0.09327542125901278
2018-02-27,0.08513501944190782
2018-02-28,0.07902782345857329
2018-03-01,0.07421991145817852
2018-03-02,0.07905354110969043
2018-03-03,0.13282532794033397
2018-03-04,0.11494536830301616
2018-03-05,0.12846342103702835
2018-03-06,0.11170418966506457
2018-03-07,0.09931093737677354
2018-03-08,0.13149110480356363
2018-03-09,0.11425675015617376
2018-03-10,0.10163688909714264
2018-03-11,0.09198711116965086
2018-03-12,0.08456995115336596
2018-03-13,0.08689882159677342
2018-03-14,0.10569865728750294
2018-03-15,0.09549368618425103
2018-03-16,0.0871984416940057
2018-03-17,0.08107753863200351
2018-03-18,0.07657081338722893
2018-03-19,0.07367944088585077
2018-03-20,0.07147959252843084
2018-03-21,0.06946358092737448
2018-03-22,0.06993044013257332
2018-03-23,0.06753117965383026
2018-03-24,0.06572565359682159
2018-03-25,0.06435174404680133
2018-03-26,0.0634660546753425
2018-03-27,0.06302521994601751
2018-03-28,0.06289109247730895
2018-03-29,0.06199211482008948
2018-03-30,0.062057191393702915
2018-03-31,0.06278000213961299
2018-04-01,0.061318676332415833
2018-04-02,0.06180887919444533
2018-04-03,0.07007054060075113
2018-04-04,0.08743896382575311
2018-04-05,0.08845796406211281
2018-04-06,0.08139236532588257
2018-04-07,0.08507937928217402
2018-04-08,0.07920326573416503
2018-04-09,0.07456587330839959
2018-04-10,0.07162543512239417
2018-04-11,0.07071433143748429
2018-04-12,0.06808461571687463
2018-04-13,0.06764799727328441
2018-04-14,0.06429649275138072
2018-04-15,0.06131858178847871
2018-04-16,0.08943314711707817
2018-04-17,0.15722923087100593
2018-04-18,0.13538187840001914
2018-04-19,0.11977004134451885
2018-04-20,0.11123249682856517
2018-04-21,0.09799110606795214
2018-04-22,0.0876208733186461
2018-04-23,0.0796198223397866
2018-04-24,0.07323156283953125
2018-04-25,0.07093739441973312
2018-04-26,0.08876779791078704
2018-04-27,0.07928925297022449
2018-04-28,0.08118060677433991
2018-04-29,0.07453851102987574
2018-04-30,0.07668190987790346
2018-05-01,0.07613997987617527
2018-05-02,0.07015164508613925
2018-05-03,0.06423914089111449
2018-05-04,0.06282386208696522
2018-05-05,0.057589189853047174
2018-05-06,0.05456017770283239
2018-05-07,0.06280470540343419
2018-05-08,0.05915420742993849
2018-05-09,0.05635553974560814
2018-05-10,0.05399369676372512
2018-05-11,0.05223758923285704
2018-05-12,0.05107932905357071
2018-05-13,0.0607546832726209
2018-05-14,0.05956557886733105
2018-05-15,0.05662791796888644
2018-05-16,0.07911656228444652
2018-05-17,0.07265268994348162
2018-05-18,0.0658914009475291
2018-05-19,0.06097986257799981
2018-05-20,0.07160246263059822
2018-05-21,0.06897950908664896
2018-05-22,0.06292789421870015
2018-05-23,0.06168256249723392
2018-05-24,0.05722802348142242
2018-05-25,0.053787937631005533
2018-05-26,0.051063124118237546
2018-05-27,0.048384354705036436
2018-05-28,0.04929872052733053
2018-05-29,0.04904662980749386
2018-05-30,0.04745002799314513
2018-05-31,0.04556881389454048
2018-06-01,0.04501883223172243
2018-06-02,0.04431645441868959
2018-06-03,0.042972167193570776
2018-06-04,0.04676915863169828
2018-06-05,0.06035808246569818
2018-06-06,0.06031409459242987
2018-06-07,0.05720723580414777
2018-06-08,0.05460216263312656
2018-06-09,0.051981888752043126
2018-06-10,0.04959370493037163
2018-06-11,0.048112252227487495
2018-06-12,0.047311693419105794
2018-06-13,0.046794748439908496
2018-06-14,0.048009615909538006
2018-06-15,0.04866417404573564
2018-06-16,0.04903133932901138
2018-06-17,0.047670100097413126
2018-06-18,0.045897910290509714
2018-06-19,0.07021651242743943
2018-06-20,0.062138747774587166
2018-06-21,0.057254917285425755
2018-06-22,0.05321406237631532
2018-06-23,0.050428348402047796
2018-06-24,0.04912379737490369
2018-06-25,0.05941914763370981
2018-06-26,0.05499684129898075
2018-06-27,0.05253165829296602
2018-06-28,0.08036619188515903
2018-06-29,0.14110222981746112
2018-06-30,0.11535185982183815
2018-07-01,0.09574533079370617
2018-07-02,0.08047880502121796
2018-07-03,0.06898189516594755
2018-07-04,0.06040279117809266
2018-07-05,0.05379626534575355
2018-07-06,0.0490443726827996
2018-07-07,0.07124028314081254
2018-07-08,0.06417299864970083
2018-07-09,0.05854961379014689
2018-07-10,0.053979924846242255
2018-07-11,0.051165485426098556
2018-07-12,0.048189755351240926
2018-07-13,0.046535113119171356
2018-07-14,0.04498299580111986
2018-07-15,0.04493281651169578
2018-07-16,0.04331079441077712
2018-07-17,0.04159595931586679
2018-07-18,0.11695586883508113
2018-07-19,0.09748809786503454
2018-07-20,0.08380625550475784
2018-07-21,0.07325087163982413
2018-07-22,0.07229623559363585
2018-07-23,0.11689650452893563
2018-07-24,0.11005203289874643
2018-07-25,0.10012103814359197
2018-07-26,0.10939451039326009
2018-07-27,0.11440363675716458
2018-07-28,0.09814149152762042
2018-07-29,0.08334992977945177
2018-07-30,0.07266725423675258
2018-07-31,0.06505122280040432
2018-08-01,0.05911084267160138
2018-08-02,0.05882502838882253
2018-08-03,0.07578732540576194
2018-08-04,0.07724303482629136
2018-08-05,0.10847014060897564
2018-08-06,0.0912161930148967
2018-08-07,0.07803980420434531
2018-08-08,0.07245502025600903
2018-08-09,0.08941855939159638
2018-08-10,0.07683621429783116
2018-08-11,0.07854472539325474
2018-08-12,0.0846563100496196
2018-08-13,0.07625728310607016
2018-08-14,0.08787155218776377
2018-08-15,0.10018636749444187
2018-08-16,0.08550819289372669
2018-08-17,0.07432032477918771
2018-08-18,0.08169922557942577
2018-08-19,0.10812577352998431
2018-08-20,0.09212144354816942
2018-08-21,0.08033492777948226
2018-08-22,0.08703339753899897
2018-08-23,0.08036290009933023
2018-08-24,0.07157288138920581
2018-08-25,0.06527774128553165
2018-08-26,0.06042288262961559
2018-08-27,0.0568366109580456
2018-08-28,0.05384999766977128
2018-08-29,0.05085288375976571
2018-08-30,0.04828498292197381
2018-08-31,0.04666705186715259
2018-09-01,0.046429918219320854
2018-09-02,0.04673106093478996
2018-09-03,0.04666159339268994
2018-09-04,0.04601281753286113
2018-09-05,0.04508181312170656
2018-09-06,0.04459681316098241
2018-09-07,0.055277459987506106
2018-09-08,0.05314610297209299
2018-09-09,0.052250473588106416
2018-09-10,0.05233418775499654
2018-09-11,0.1010962709586245
2018-09-12,0.08839533198886507
2018-09-13,0.12853698005391934
2018-09-14,0.10865005689058727
2018-09-15,0.0935836417400191
2018-09-16,0.08206545244102248
2018-09-17,0.07323168651176815
2018-09-18,0.07094871542810477
2018-09-19,0.09756771798496011
2018-09-20,0.0861110981713864
2018-09-21,0.07740375881936234
2018-09-22,0.07757435170771654
2018-09-23,0.07111611878131363
2018-09-24,0.06696045267450224
2018-09-25,0.0641076317596676
2018-09-26,0.1462241100353019
2018-09-27,0.13377073991041577
2018-09-28,0.12201342915921831
2018-09-29,0.10883856739156528
2018-09-30,0.09514845937767547
2018-10-01,0.08511525027325817
2018-10-02,0.08718009231078572
2018-10-03,0.13380089913703053
2018-10-04,0.11389144352141933
2018-10-05,0.09853736175665784
2018-10-06,0.08743015782726182
2018-10-07,0.0794654012644278
2018-10-08,0.07299324737831991
2018-10-09,0.06914786327097211
2018-10-10,0.06527767907216564
2018-10-11,0.0619532768285076
2018-10-12,0.09606832643453611
2018-10-13,0.08573389331875791
2018-10-14,0.08595056932978729
2018-10-15,0.07925110658331569
2018-10-16,0.08163074055153974
2018-10-17,-0.05019725753694093
2018-10-18,-0.15530600721890675
2018-10-19,-0.2413871155228664
2018-10-20,-0.3109432251307336
2018-10-21,-0.3651820796818539
2018-10-22,-0.41062809596621097
2018-10-23,-0.44667811726811024
2018-10-24,-0.47028265702019656
2018-10-25,-0.4949678661453696
2018-10-26,-0.5144899160747975
2018-10-27,-0.5246588450090766
2018-10-28,-0.510482325913892
2018-10-29,-0.5234795626174744
2018-10-30,-0.5345724872184947
2018-10-31,-0.5463660030365123
2018-11-01,-0.5557163860042724
2018-11-02,-0.5546920171542871
2018-11-03,-0.48658610959271353
2018-11-04,-0.500302154092779
2018-11-05,-0.5190321759758385
2018-11-06,-0.5221276515878426
2018-11-07,-0.5186555581195309
2018-11-08,-0.5339419050569552
2018-11-09,-0.5458893450745226
2018-11-10,-0.5210109163417238
2018-11-11,-0.5328710923640676
2018-11-12,-0.5445557451652325
2018-11-13,-0.5307591611698692
2018-11-14,-0.515650702784682
2018-11-15,-0.5305996815191198
2018-11-16,-0.5022011508114881
2018-11-17,-0.514185816308367
2018-11-18,-0.5296057294292913
2018-11-19,-0.5378729157502118
2018-11-20,-0.5383385088991668
2018-11-21,-0.5422467789838556
2018-11-22,-0.5518299950539598
2018-11-23,-0.5591655939916667
2018-11-24,-0.5650386262270022
2018-11-25,-0.5552430858784669
2018-11-26,-0.5623387738961094
2018-11-27,-0.5320466372056041
2018-11-28,-0.5429793889523573
2018-11-29,-0.5525432455455883
2018-11-30,-0.5602133446640316
2018-12-01,-0.5661707446657296
2018-12-02,-0.5565881709207332
2018-12-03,-0.5523714586406392
2018-12-04,-0.5604139525177132
2018-12-05,-0.5665077944722299
2018-12-06,-0.5710052367480243
2018-12-07,-0.5734817457016579
2018-12-08,-0.5766256544793062
2018-12-09,-0.5790134638808571
2018-12-10,-0.580924195250387
2018-12-11,-0.5824823598316256
2018-12-12,-0.5837025355913648
2018-12-13,-0.5847078633148444
2018-12-14,-0.5855084074341601
2018-12-15,-0.5847136153183756
2018-12-16,-0.5852639911582127
2018-12-17,-0.5622299594406233
2018-12-18,-0.565842816980898
2018-12-19,-0.5705009112415427
2018-12-20,-0.5742176653622968
2018-12-21,-0.554254892828328
2018-12-22,-0.5091422983568457
2018-12-23,-0.5236772627350943
2018-12-24,-0.5370392976214902
2018-12-25,-0.5465590449869451
2018-12-26,-0.5552347170741916
2018-12-27,-0.5620345365356787
2018-12-28,-0.5675133460401396
2018-12-29,-0.551507263636343
2018-12-30,-0.5596104016153554
2018-12-31,-0.5657217314637171
2019-01-01,-0.5407872848255435
2019-01-02,-0.5509354319816335
2019-01-03,-0.5587263645139426
2019-01-04,-0.565003580236505
2019-01-05,-0.5631629818785555
2019-01-06,-0.5494033804486529
2019-01-07,-0.5576397994815174
2019-01-08,-0.5622934299269273
2019-01-09,-0.5584373719564697
2019-01-10,-0.5648371349879877
2019-01-11,-0.5698516803222011
2019-01-12,-0.5735923288801867
2019-01-13,-0.5592058976859073
2019-01-14,-0.5451556960300916
2019-01-15,-0.5314332773497101
2019-01-16,-0.5180304368792434
2019-01-17,-0.5049672059470334
2019-01-18,-0.49217918342371814
2019-01-19,-0.47971836421708147
2019-01-20,-0.43169941039187965
2019-01-21,-0.4069520959254964
2019-01-22,-0.3964236483229726
2019-01-23,-0.3861363226954495
