,2014,2015,2016,2017
normal_level,0,0.009,0.074,0.061
wd_level,-1.1,-0.883,-1.1,-1.5
T_startdrawdown,297,306,309,289
T_stopdrawdown,326,350,355,349
T_startrefill,439,410,406,415
T_stoprefill,479,453,456,465
Qmin_recession,0.157817403,0.114656298,0.173804905,0.114053617
Qmin_refill,0.054762955,0.110363897,0.110136052,0.0739737
Qmin_drawdown,0.018488506,0.088864005,0.10804773,0.110138244
Qmin_summer,0.116639781,0.10362581,0.116824664,0.131416286
Qmax_recession,1.193656148,1.198724054,1.398724054,1.298724054
Qmax_refill,1.215037808,1.230846653,1.148702058,1.224688938
Qmax_drawdown,0.152126616,0.152126616,0.452126616,0.697997627
Qmax_summer,1.944229988,2.998724054,2.998724054,0.510168408
alpha,20.8792854344235,20.6738912905756,14.0637240021036,43.4734063031103
beta,75.1580767364553,39.8348447154348,86.6728957933239,109.65792321523
gamma,29.9686016728042,46.9663726652947,48.8250332481275,35.1169940585639
theta,18.0654228681662,95.0916068807378,22.106983492236,6.09629040197452
