Date,In-situ Water Level (Mean)
10/13/2014,-0.17825
10/14/2014,-0.178666667
10/15/2014,-0.181
10/16/2014,-0.156833333
10/17/2014,-0.144083333
10/18/2014,-0.146416667
10/19/2014,-0.148583333
10/20/2014,-0.160166667
10/21/2014,-0.163083333
10/22/2014,-0.164833333
10/23/2014,-0.138583333
10/24/2014,-0.137333333
10/25/2014,-0.155333333
10/26/2014,-0.16725
10/27/2014,-0.18675
10/28/2014,-0.21
10/29/2014,-0.22525
10/30/2014,-0.2465
10/31/2014,-0.278083333
11/1/2014,-0.316
11/2/2014,-0.357916667
11/3/2014,-0.399833333
11/4/2014,-0.437333333
11/5/2014,-0.468
11/6/2014,-0.508833333
11/7/2014,-0.541833333
11/8/2014,-0.5815
11/9/2014,-0.619166667
11/10/2014,-0.660916667
11/11/2014,-0.700666667
11/12/2014,-0.7365
11/13/2014,-0.776666667
11/14/2014,-0.81175
11/15/2014,-0.859166667
11/16/2014,-0.899916667
11/17/2014,-0.921666667
11/18/2014,-0.935583333
11/19/2014,-0.99175
11/20/2014,-1.018166667
11/21/2014,-1.063666667
11/22/2014,-1.1095
11/23/2014,-1.12075
11/24/2014,-1.096083333
11/25/2014,-1.075083333
11/26/2014,-1.062333333
11/27/2014,-1.03725
11/28/2014,-1.028166667
11/29/2014,-1.026083333
11/30/2014,-1.01075
12/1/2014,-1.020833333
12/2/2014,-1.040833333
12/3/2014,-1.051833333
12/4/2014,-1.065333333
12/5/2014,-1.092
12/6/2014,-1.087916667
12/7/2014,-1.086416667
12/8/2014,-1.107083333
12/9/2014,-1.065
12/10/2014,-0.978916667
12/11/2014,-0.923
12/12/2014,-0.886833333
12/13/2014,-0.858833333
12/14/2014,-0.835
12/15/2014,-0.812333333
12/16/2014,-0.79275
12/17/2014,-0.763416667
12/18/2014,-0.73125
12/19/2014,-0.715333333
12/20/2014,-0.71625
12/21/2014,-0.708583333
12/22/2014,-0.701666667
12/23/2014,-0.690333333
12/24/2014,-0.671916667
12/25/2014,-0.62525
12/26/2014,-0.572666667
12/27/2014,-0.544666667
12/28/2014,-0.510166667
12/29/2014,-0.481666667
12/30/2014,-0.48275
12/31/2014,-0.495916667
1/1/2015,-0.504333333
1/2/2015,-0.499666667
1/3/2015,-0.51525
1/4/2015,-0.501083333
1/5/2015,-0.499166667
1/6/2015,-0.537083333
1/7/2015,-0.56225
1/8/2015,-0.612
1/9/2015,-0.580583333
1/10/2015,-0.6045
1/11/2015,-0.637583333
1/12/2015,-0.602833333
1/13/2015,-0.647666667
1/14/2015,-0.71125
1/15/2015,-0.6995
1/16/2015,-0.705666667
1/17/2015,-0.754583333
1/18/2015,-0.729416667
1/19/2015,-0.6955
1/20/2015,-0.714
1/21/2015,-0.752416667
1/22/2015,-0.754833333
1/23/2015,-0.775833333
1/24/2015,-0.787416667
1/25/2015,-0.808416667
1/26/2015,-0.8535
1/27/2015,-0.871333333
1/28/2015,-0.897
1/29/2015,-0.937
1/30/2015,-0.910833333
1/31/2015,-0.990833333
2/1/2015,-0.978583333
2/2/2015,-0.997416667
2/3/2015,-1.055416667
2/4/2015,-1.06175
2/5/2015,-1.048166667
2/6/2015,-1.127083333
2/7/2015,-1.106416667
2/8/2015,-1.115416667
2/9/2015,-1.142083333
2/10/2015,-1.15425
2/11/2015,-1.207333333
2/12/2015,-1.220833333
2/13/2015,-1.30625
2/14/2015,-1.321916667
2/15/2015,-1.338416667
2/16/2015,-1.421333333
2/17/2015,-1.402583333
2/18/2015,-1.442
2/19/2015,-1.453166667
2/20/2015,-1.543916667
2/21/2015,-1.6005
2/22/2015,-1.560166667
2/23/2015,-1.619
2/24/2015,
2/25/2015,
2/26/2015,
2/27/2015,
2/28/2015,
3/1/2015,
3/2/2015,
3/3/2015,-1.65625
3/4/2015,-1.6205
3/5/2015,-1.611333333
3/6/2015,-1.676666667
3/7/2015,-1.643
3/8/2015,-1.600454545
3/9/2015,-1.603166667
3/10/2015,-1.586333333
3/11/2015,-1.557583333
3/12/2015,-1.547916667
3/13/2015,-1.551166667
3/14/2015,-1.534416667
3/15/2015,-1.511916667
3/16/2015,-1.505
3/17/2015,-1.484583333
3/18/2015,-1.488666667
3/19/2015,-1.4835
3/20/2015,-1.4705
3/21/2015,-1.448916667
3/22/2015,-1.44575
3/23/2015,-1.457583333
3/24/2015,-1.439
3/25/2015,-1.421
3/26/2015,-1.392916667
3/27/2015,-1.353166667
3/28/2015,-1.3325
3/29/2015,-1.32325
3/30/2015,-1.298083333
3/31/2015,-1.27575
4/1/2015,-1.25775
4/2/2015,-1.237916667
4/3/2015,-1.18725
4/4/2015,-1.090583333
4/5/2015,-1.002583333
4/6/2015,-0.94075
4/7/2015,-0.877
4/8/2015,-0.818916667
4/9/2015,-0.761
4/10/2015,-0.70175
4/11/2015,-0.631166667
4/12/2015,-0.592916667
4/13/2015,-0.554166667
4/14/2015,-0.477416667
4/15/2015,-0.41325
4/16/2015,-0.369166667
4/17/2015,-0.312666667
4/18/2015,-0.264416667
4/19/2015,-0.231
4/20/2015,-0.197666667
4/21/2015,-0.153083333
4/22/2015,-0.11075
4/23/2015,-0.05025
4/24/2015,-0.018
4/25/2015,-0.00175
4/26/2015,0.011166667
4/27/2015,0.0145
4/28/2015,0.015
4/29/2015,0.014
4/30/2015,0.01425
5/1/2015,0.011083333
5/2/2015,0.005916667
5/3/2015,0.003833333
5/4/2015,-0.001833333
5/5/2015,-0.005916667
5/6/2015,-0.0115
5/7/2015,-0.015916667
5/8/2015,-0.0215
5/9/2015,-0.023083333
5/10/2015,-0.02825
5/11/2015,-0.0315
5/12/2015,-0.0325
5/13/2015,-0.040416667
5/14/2015,-0.0495
5/15/2015,-0.054833333
5/16/2015,-0.049583333
5/17/2015,-0.047166667
5/18/2015,-0.046666667
5/19/2015,-0.0415
5/20/2015,-0.03725
5/21/2015,-0.04575
5/22/2015,-0.047083333
5/23/2015,-0.051916667
5/24/2015,-0.052416667
5/25/2015,-0.052
5/26/2015,-0.05025
5/27/2015,-0.041
5/28/2015,-0.0265
5/29/2015,-0.018833333
5/30/2015,-0.020416667
5/31/2015,-0.01975
6/1/2015,-0.010272727
6/2/2015,0.01175
6/3/2015,0.0065
6/4/2015,0.000583333
6/5/2015,-0.00575
6/6/2015,-0.005166667
6/7/2015,-0.009166667
6/8/2015,-0.01075
6/9/2015,0.008166667
6/10/2015,0.015583333
6/11/2015,0.010583333
6/12/2015,0.00675
6/13/2015,0.0255
6/14/2015,0.03525
6/15/2015,0.07075
6/16/2015,0.095916667
6/17/2015,0.099083333
6/18/2015,0.09175
6/19/2015,0.078083333
6/20/2015,0.069833333
6/21/2015,0.105
6/22/2015,0.118333333
6/23/2015,0.10475
6/24/2015,0.094333333
6/25/2015,0.08
6/26/2015,0.068916667
6/27/2015,0.060583333
6/28/2015,0.07225
6/29/2015,0.071166667
6/30/2015,0.065083333
7/1/2015,0.120416667
7/2/2015,0.165083333
7/3/2015,0.156333333
7/4/2015,0.139083333
7/5/2015,0.122666667
7/6/2015,0.107083333
7/7/2015,0.09725
7/8/2015,0.08975
7/9/2015,0.080666667
7/10/2015,0.11975
7/11/2015,0.109416667
7/12/2015,0.098166667
7/13/2015,0.087583333
7/14/2015,0.083583333
7/15/2015,0.072916667
7/16/2015,0.062666667
7/17/2015,0.050916667
7/18/2015,0.0495
7/19/2015,0.064416667
7/20/2015,0.06125
7/21/2015,0.052166667
7/22/2015,0.040583333
7/23/2015,0.040333333
7/24/2015,0.0335
7/25/2015,0.037333333
7/26/2015,0.050916667
7/27/2015,0.049333333
7/28/2015,0.045333333
7/29/2015,0.040916667
7/30/2015,0.038916667
7/31/2015,0.03575
8/1/2015,0.032416667
8/2/2015,0.028083333
8/3/2015,0.022583333
8/4/2015,0.028916667
8/5/2015,0.033333333
8/6/2015,0.02675
8/7/2015,0.020333333
8/8/2015,0.0155
8/9/2015,0.013416667
8/10/2015,0.011666667
8/11/2015,0.023166667
8/12/2015,0.034333333
8/13/2015,0.028666667
8/14/2015,0.023833333
8/15/2015,0.026
8/16/2015,0.0345
8/17/2015,0.029166667
8/18/2015,0.0255
8/19/2015,0.023083333
8/20/2015,0.01625
8/21/2015,0.02325
8/22/2015,0.023083333
8/23/2015,0.01725
8/24/2015,0.015083333
8/25/2015,0.022083333
8/26/2015,0.024166667
8/27/2015,0.016333333
8/28/2015,0.008916667
8/29/2015,0.005333333
8/30/2015,0.002583333
8/31/2015,8.33E-05
9/1/2015,5.00E-04
9/2/2015,-0.003833333
9/3/2015,-0.009583333
9/4/2015,-0.017083333
9/5/2015,-0.025083333
9/6/2015,-0.03275
9/7/2015,-0.039416667
9/8/2015,-0.045583333
9/9/2015,-0.051916667
9/10/2015,-0.055083333
9/11/2015,-0.049666667
9/12/2015,-0.052166667
9/13/2015,-0.033666667
9/14/2015,-0.036
9/15/2015,-0.04725
9/16/2015,-0.050833333
9/17/2015,-0.05375
9/18/2015,-0.061416667
9/19/2015,-0.066333333
9/20/2015,-0.0735
9/21/2015,-0.085333333
9/22/2015,-0.09525
9/23/2015,-0.102666667
9/24/2015,-0.10925
9/25/2015,-0.115333333
9/26/2015,-0.122583333
9/27/2015,-0.131333333
9/28/2015,-0.138666667
9/29/2015,-0.142833333
9/30/2015,-0.08825
10/1/2015,-0.068583333
10/2/2015,-0.079083333
10/3/2015,-0.089083333
10/4/2015,-0.1
10/5/2015,-0.10675
10/6/2015,-0.110333333
10/7/2015,-0.113083333
10/8/2015,-0.11825
10/9/2015,-0.119583333
10/10/2015,-0.122166667
10/11/2015,-0.13025
10/12/2015,-0.135583333
10/13/2015,-0.137416667
10/14/2015,-0.136083333
10/15/2015,-0.148416667
10/16/2015,-0.15725
10/17/2015,-0.169333333
10/18/2015,-0.19325
10/19/2015,-0.212416667
10/20/2015,-0.223416667
10/21/2015,-0.23225
10/22/2015,-0.232583333
10/23/2015,-0.234083333
10/24/2015,-0.241333333
10/25/2015,-0.22725
10/26/2015,-0.222916667
10/27/2015,-0.225833333
10/28/2015,-0.222666667
10/29/2015,-0.1795
10/30/2015,-0.170083333
10/31/2015,-0.174416667
11/1/2015,-0.172
11/2/2015,-0.171
11/3/2015,-0.180166667
11/4/2015,-0.189333333
11/5/2015,-0.200333333
11/6/2015,-0.209916667
11/7/2015,-0.217833333
11/8/2015,-0.232583333
11/9/2015,-0.25075
11/10/2015,-0.262833333
11/11/2015,-0.243333333
11/12/2015,-0.2315
11/13/2015,-0.22375
11/14/2015,-0.231166667
11/15/2015,-0.242
11/16/2015,-0.250583333
11/17/2015,-0.275916667
11/18/2015,-0.302416667
11/19/2015,-0.321416667
11/20/2015,-0.302333333
11/21/2015,-0.31725
11/22/2015,-0.329916667
11/23/2015,-0.351833333
11/24/2015,-0.375666667
11/25/2015,-0.39525
11/26/2015,-0.41375
11/27/2015,-0.42925
11/28/2015,-0.44575
11/29/2015,-0.471916667
11/30/2015,-0.503916667
12/1/2015,-0.536833333
12/2/2015,-0.554833333
12/3/2015,-0.56875
12/4/2015,-0.606083333
12/5/2015,-0.638833333
12/6/2015,-0.677083333
12/7/2015,-0.708833333
12/8/2015,-0.741916667
12/9/2015,-0.772583333
12/10/2015,-0.803583333
12/11/2015,-0.832818182
12/12/2015,-0.864583333
12/13/2015,-0.898083333
12/14/2015,-0.930333333
12/15/2015,-0.930833333
12/16/2015,-0.96075
12/17/2015,-0.96625
12/18/2015,-0.958083333
12/19/2015,-0.9635
12/20/2015,-0.976416667
12/21/2015,-0.983
12/22/2015,-0.965833333
12/23/2015,-0.942166667
12/24/2015,-0.899666667
12/25/2015,-0.8745
12/26/2015,-0.85475
12/27/2015,-0.82725
12/28/2015,-0.8075
12/29/2015,-0.78325
12/30/2015,-0.752333333
12/31/2015,-0.7305
1/1/2016,-0.722166667
1/2/2016,-0.721416667
1/3/2016,-0.72075
1/4/2016,-0.747
1/5/2016,-0.781083333
1/6/2016,-0.773833333
1/7/2016,-0.777666667
1/8/2016,-0.78925
1/9/2016,-0.8035
1/10/2016,-0.810833333
1/11/2016,-0.808583333
1/12/2016,-0.834083333
1/13/2016,-0.847166667
1/14/2016,-0.874666667
1/15/2016,-0.87325
1/16/2016,-0.8755
1/17/2016,-0.883333333
1/18/2016,-0.887416667
1/19/2016,-0.8905
1/20/2016,-0.873916667
1/21/2016,-0.86075
1/22/2016,-0.861166667
1/23/2016,-0.846166667
1/24/2016,-0.84825
1/25/2016,-0.83275
1/26/2016,-0.820583333
1/27/2016,-0.809416667
1/28/2016,-0.811333333
1/29/2016,-0.804333333
1/30/2016,-0.802416667
1/31/2016,-0.793416667
2/1/2016,-0.78825
2/2/2016,-0.784416667
2/3/2016,-0.776666667
2/4/2016,-0.758416667
2/5/2016,-0.754
2/6/2016,-0.7515
2/7/2016,-0.745666667
2/8/2016,-0.739833333
2/9/2016,-0.733166667
2/10/2016,-0.72225
2/11/2016,-0.73275
2/12/2016,-0.759333333
2/13/2016,-0.77275
2/14/2016,-0.84425
2/15/2016,-0.7955
2/16/2016,-0.6875
2/17/2016,-0.619833333
2/18/2016,-0.6025
2/19/2016,-0.598583333
2/20/2016,-0.571666667
2/21/2016,-0.554916667
2/22/2016,-0.55125
2/23/2016,-0.553
2/24/2016,-0.54425
2/25/2016,-0.422833333
2/26/2016,-0.31475
2/27/2016,-0.275666667
2/28/2016,-0.24825
2/29/2016,-0.23425
3/1/2016,-0.2325
3/2/2016,-0.222166667
3/3/2016,-0.235583333
3/4/2016,-0.236666667
3/5/2016,-0.237583333
3/6/2016,-0.230833333
3/7/2016,-0.224416667
3/8/2016,-0.215333333
3/9/2016,-0.211083333
3/10/2016,-0.2015
3/11/2016,-0.175166667
3/12/2016,-0.165083333
3/13/2016,-0.1485
3/14/2016,-0.132416667
3/15/2016,-0.117583333
3/16/2016,-0.101166667
3/17/2016,-0.073
3/18/2016,-0.060916667
3/19/2016,-0.05575
3/20/2016,-0.055666667
3/21/2016,-0.0415
3/22/2016,-0.047166667
3/23/2016,-0.042833333
3/24/2016,-0.0425
3/25/2016,-0.036
3/26/2016,-0.033916667
3/27/2016,-0.034
3/28/2016,-0.029
3/29/2016,-0.016
3/30/2016,-0.025416667
3/31/2016,-0.02175
4/1/2016,-0.020666667
4/2/2016,-0.014666667
4/3/2016,-0.009666667
4/4/2016,-0.020166667
4/5/2016,-0.022666667
4/6/2016,-0.024916667
4/7/2016,-0.008666667
4/8/2016,0.029166667
4/9/2016,0.038333333
4/10/2016,0.042583333
4/11/2016,0.048583333
4/12/2016,0.063
4/13/2016,0.070166667
4/14/2016,0.079916667
4/15/2016,0.088916667
4/16/2016,0.093
4/17/2016,0.09475
4/18/2016,0.09925
4/19/2016,0.100083333
4/20/2016,0.09075
4/21/2016,0.086833333
4/22/2016,0.086583333
4/23/2016,0.083416667
4/24/2016,0.077166667
4/25/2016,0.07375
4/26/2016,0.074583333
4/27/2016,0.07375
4/28/2016,0.07175
4/29/2016,0.068583333
4/30/2016,0.06525
5/1/2016,0.06625
5/2/2016,0.067416667
5/3/2016,0.073583333
5/4/2016,0.076333333
5/5/2016,0.074666667
5/6/2016,0.076833333
5/7/2016,0.079083333
5/8/2016,0.087166667
5/9/2016,0.07975
5/10/2016,0.074416667
5/11/2016,0.07275
5/12/2016,0.07375
5/13/2016,0.0765
5/14/2016,0.085916667
5/15/2016,0.08375
5/16/2016,0.072666667
5/17/2016,0.0605
5/18/2016,0.058166667
5/19/2016,0.05825
5/20/2016,0.056583333
5/21/2016,0.05475
5/22/2016,0.05325
5/23/2016,0.050916667
5/24/2016,0.053083333
5/25/2016,0.052583333
5/26/2016,0.05
5/27/2016,0.0495
5/28/2016,0.048583333
5/29/2016,0.04775
5/30/2016,0.05775
5/31/2016,0.07275
6/1/2016,0.062916667
6/2/2016,0.05625
6/3/2016,0.051833333
6/4/2016,0.046666667
6/5/2016,0.054916667
6/6/2016,0.07825
6/7/2016,0.07875
6/8/2016,0.078416667
6/9/2016,0.060916667
6/10/2016,0.05
6/11/2016,0.050166667
6/12/2016,0.055916667
6/13/2016,0.047583333
6/14/2016,0.041583333
6/15/2016,0.039916667
6/16/2016,0.037666667
6/17/2016,0.036416667
6/18/2016,0.034083333
6/19/2016,0.032583333
6/20/2016,0.033583333
6/21/2016,0.033416667
6/22/2016,0.026166667
6/23/2016,0.0195
6/24/2016,0.015916667
6/25/2016,0.014083333
6/26/2016,0.013416667
6/27/2016,0.0125
6/28/2016,0.009916667
6/29/2016,0.01875
6/30/2016,0.014
7/1/2016,0.011833333
7/2/2016,0.022333333
7/3/2016,0.013916667
7/4/2016,0.010416667
7/5/2016,0.013166667
7/6/2016,0.01425
7/7/2016,0.01275
7/8/2016,0.015
7/9/2016,0.0235
7/10/2016,0.028083333
7/11/2016,0.025416667
7/12/2016,0.021916667
7/13/2016,0.01775
7/14/2016,0.016583333
7/15/2016,0.021666667
7/16/2016,0.028583333
7/17/2016,0.025916667
7/18/2016,0.023
7/19/2016,0.018333333
7/20/2016,0.010333333
7/21/2016,0.004333333
7/22/2016,0.001333333
7/23/2016,-0.002
7/24/2016,-0.0035
7/25/2016,-0.008166667
7/26/2016,-0.015
7/27/2016,-0.024333333
7/28/2016,-0.0315
7/29/2016,-0.031
7/30/2016,-0.036333333
7/31/2016,-0.024416667
8/1/2016,0
8/2/2016,0.01175
8/3/2016,0.012416667
8/4/2016,0.009333333
8/5/2016,0.007166667
8/6/2016,0.00125
8/7/2016,-0.0015
8/8/2016,-0.008583333
8/9/2016,-0.013333333
8/10/2016,-0.01225
8/11/2016,-0.009583333
8/12/2016,-0.003166667
8/13/2016,0.014416667
8/14/2016,0.027083333
8/15/2016,0.021416667
8/16/2016,0.01625
8/17/2016,0.014583333
8/18/2016,0.007
8/19/2016,0.003833333
8/20/2016,-0.000583333
8/21/2016,-0.0035
8/22/2016,0.015
8/23/2016,0.006333333
8/24/2016,0.00025
8/25/2016,-0.00125
8/26/2016,-0.004333333
8/27/2016,-0.004833333
8/28/2016,-0.007833333
8/29/2016,-0.01125
8/30/2016,-0.015333333
8/31/2016,-0.02175
9/1/2016,-0.027916667
9/2/2016,-0.034333333
9/3/2016,-0.045
9/4/2016,-0.053083333
9/5/2016,-0.061666667
9/6/2016,-0.069916667
9/7/2016,-0.075916667
9/8/2016,-0.080583333
9/9/2016,-0.079583333
9/10/2016,-0.0855
9/11/2016,-0.08075
9/12/2016,-0.089333333
9/13/2016,-0.09775
9/14/2016,-0.103
9/15/2016,-0.112833333
9/16/2016,-0.121833333
9/17/2016,-0.12975
9/18/2016,-0.13375
9/19/2016,-0.106166667
9/20/2016,-0.101916667
9/21/2016,-0.104166667
9/22/2016,-0.111916667
9/23/2016,-0.11775
9/24/2016,-0.123916667
9/25/2016,-0.135916667
9/26/2016,-0.14675
9/27/2016,-0.143583333
9/28/2016,-0.147333333
9/29/2016,-0.158833333
9/30/2016,-0.168416667
10/1/2016,-0.1755
10/2/2016,-0.18075
10/3/2016,-0.18475
10/4/2016,-0.189583333
10/5/2016,-0.1965
10/6/2016,-0.201666667
10/7/2016,-0.206
10/8/2016,-0.211666667
10/9/2016,-0.216
10/10/2016,-0.225666667
10/11/2016,-0.238666667
10/12/2016,-0.241833333
10/13/2016,-0.245
10/14/2016,-0.250166667
10/15/2016,-0.25725
10/16/2016,-0.264416667
10/17/2016,-0.267333333
10/18/2016,-0.2675
10/19/2016,-0.269
10/20/2016,-0.27425
10/21/2016,-0.268833333
10/22/2016,-0.244083333
10/23/2016,-0.195166667
10/24/2016,-0.20125
10/25/2016,-0.208833333
10/26/2016,-0.2175
10/27/2016,-0.221833333
10/28/2016,-0.205166667
10/29/2016,-0.204416667
10/30/2016,-0.20225
10/31/2016,-0.202083333
11/1/2016,-0.2095
11/2/2016,-0.209
11/3/2016,-0.206416667
11/4/2016,-0.203833333
11/5/2016,-0.21025
11/6/2016,-0.213333333
11/7/2016,-0.22025
11/8/2016,-0.238333333
11/9/2016,-0.255916667
11/10/2016,-0.278666667
11/11/2016,-0.297166667
11/12/2016,-0.324583333
11/13/2016,-0.346166667
11/14/2016,-0.368666667
11/15/2016,-0.381833333
11/16/2016,-0.3825
11/17/2016,-0.400416667
11/18/2016,-0.434083333
11/19/2016,-0.47
11/20/2016,-0.485083333
11/21/2016,-0.506833333
11/22/2016,-0.5425
11/23/2016,-0.582333333
11/24/2016,-0.61625
11/25/2016,-0.641916667
11/26/2016,-0.672833333
11/27/2016,-0.701416667
11/28/2016,-0.734916667
11/29/2016,-0.760416667
11/30/2016,-0.758166667
12/1/2016,-0.677666667
12/2/2016,-0.59775
12/3/2016,-0.585166667
12/4/2016,-0.597083333
12/5/2016,-0.607833333
12/6/2016,-0.620083333
12/7/2016,-0.635416667
12/8/2016,-0.668416667
12/9/2016,-0.707
12/10/2016,-0.76875
12/11/2016,-0.814083333
12/12/2016,-0.831083333
12/13/2016,-0.865666667
12/14/2016,-0.910583333
12/15/2016,-0.96925
12/16/2016,-1.05625
12/17/2016,-1.066333333
12/18/2016,-1.065166667
12/19/2016,-1.121833333
12/20/2016,-1.178583333
12/21/2016,-1.135666667
12/22/2016,-1.110666667
12/23/2016,-1.097416667
12/24/2016,-1.084416667
12/25/2016,-1.066416667
12/26/2016,-1.06775
12/27/2016,-1.041833333
12/28/2016,-1.026833333
12/29/2016,-1.015
12/30/2016,-0.993166667
12/31/2016,-0.990166667
1/1/2017,-0.974916667
1/2/2017,-0.973833333
1/3/2017,-0.957666667
1/4/2017,-0.952333333
1/5/2017,-0.965583333
1/6/2017,-0.97875
1/7/2017,-1.008916667
1/8/2017,-1.023916667
1/9/2017,-1.057166667
1/10/2017,-1.056416667
1/11/2017,-1.033416667
1/12/2017,-1.028083333
1/13/2017,-0.988333333
1/14/2017,-0.983583333
1/15/2017,-0.969833333
1/16/2017,-0.972083333
1/17/2017,-0.964916667
1/18/2017,-0.9475
1/19/2017,-0.9455
1/20/2017,-0.9485
1/21/2017,-0.952416667
1/22/2017,-0.957166667
1/23/2017,-0.966666667
1/24/2017,-0.965
1/25/2017,-0.957166667
1/26/2017,-0.958333333
1/27/2017,-0.957083333
1/28/2017,-0.971
1/29/2017,-0.982833333
1/30/2017,-1.003166667
1/31/2017,-1.027583333
2/1/2017,-1.022416667
2/2/2017,-1.038416667
2/3/2017,-1.059083333
2/4/2017,-1.078083333
2/5/2017,-1.0875
2/6/2017,-1.099583333
2/7/2017,-1.112833333
2/8/2017,-1.090666667
2/9/2017,-1.084916667
2/10/2017,-1.09375
2/11/2017,-1.063
2/12/2017,-1.044333333
2/13/2017,-1.0255
2/14/2017,-1.02425
2/15/2017,-1.013166667
2/16/2017,-1.0075
2/17/2017,-1.007833333
2/18/2017,-1.000166667
2/19/2017,-0.985416667
2/20/2017,-0.976916667
2/21/2017,-0.975083333
2/22/2017,-0.963583333
2/23/2017,-0.951333333
2/24/2017,-0.92375
2/25/2017,-0.850583333
2/26/2017,-0.708
2/27/2017,-0.633333333
2/28/2017,-0.58325
3/1/2017,-0.539083333
3/2/2017,-0.498416667
3/3/2017,-0.483333333
3/4/2017,-0.490833333
3/5/2017,-0.484666667
3/6/2017,-0.44675
3/7/2017,-0.41325
3/8/2017,-0.38525
3/9/2017,-0.368666667
3/10/2017,-0.3625
3/11/2017,-0.398916667
3/12/2017,-0.40425
3/13/2017,-0.385166667
3/14/2017,-0.345083333
3/15/2017,-0.327666667
3/16/2017,-0.30925
3/17/2017,-0.296666667
3/18/2017,-0.295166667
3/19/2017,-0.282333333
3/20/2017,-0.280583333
3/21/2017,-0.27175
3/22/2017,-0.276166667
3/23/2017,-0.285666667
3/24/2017,-0.273166667
3/25/2017,-0.26075
3/26/2017,-0.25575
3/27/2017,-0.2425
3/28/2017,-0.2295
3/29/2017,-0.186916667
3/30/2017,-0.117416667
3/31/2017,-0.0685
4/1/2017,-0.014916667
4/2/2017,0.0165
4/3/2017,0.046416667
4/4/2017,0.106666667
4/5/2017,0.193333333
4/6/2017,0.21625
4/7/2017,0.225833333
4/8/2017,0.216583333
4/9/2017,0.19425
4/10/2017,0.179916667
4/11/2017,0.166916667
4/12/2017,0.161166667
4/13/2017,0.1475
4/14/2017,0.129333333
4/15/2017,0.119333333
4/16/2017,0.11425
4/17/2017,0.113833333
4/18/2017,0.095916667
4/19/2017,0.08775
4/20/2017,0.079583333
4/21/2017,0.094833333
4/22/2017,0.100583333
4/23/2017,0.093666667
4/24/2017,0.090833333
4/25/2017,0.087416667
4/26/2017,0.0895
4/27/2017,0.090583333
4/28/2017,0.089
4/29/2017,0.089666667
4/30/2017,0.08675
5/1/2017,0.08475
5/2/2017,0.135916667
5/3/2017,0.163166667
5/4/2017,0.158333333
5/5/2017,0.169583333
5/6/2017,0.208416667
5/7/2017,0.218416667
5/8/2017,0.21075
5/9/2017,0.195083333
5/10/2017,0.17775
5/11/2017,0.164416667
5/12/2017,0.153833333
5/13/2017,0.149583333
5/14/2017,0.174833333
5/15/2017,0.1815
5/16/2017,0.17275
5/17/2017,0.166416667
5/18/2017,0.158333333
5/19/2017,0.158916667
5/20/2017,0.1485
5/21/2017,0.13525
5/22/2017,0.12825
5/23/2017,0.1215
5/24/2017,0.114333333
5/25/2017,0.107333333
5/26/2017,0.121666667
5/27/2017,0.124
5/28/2017,0.119416667
5/29/2017,0.122
5/30/2017,0.12475
5/31/2017,0.121583333
6/1/2017,0.122833333
6/2/2017,0.115666667
6/3/2017,0.106
6/4/2017,0.098166667
6/5/2017,0.097333333
6/6/2017,0.12225
6/7/2017,0.123666667
6/8/2017,0.120416667
6/9/2017,0.116166667
6/10/2017,0.113
6/11/2017,0.1045
6/12/2017,0.098083333
6/13/2017,0.094916667
6/14/2017,0.087583333
6/15/2017,0.0805
6/16/2017,0.075833333
6/17/2017,0.075083333
6/18/2017,0.07125
6/19/2017,0.08025
6/20/2017,0.11075
6/21/2017,0.105916667
6/22/2017,0.098333333
6/23/2017,0.092333333
6/24/2017,0.090333333
6/25/2017,0.085583333
6/26/2017,0.079166667
6/27/2017,0.0745
6/28/2017,0.069416667
6/29/2017,0.063833333
6/30/2017,0.060916667
7/1/2017,0.072833333
7/2/2017,0.082333333
7/3/2017,0.075666667
7/4/2017,0.065333333
7/5/2017,0.058916667
7/6/2017,0.05425
7/7/2017,0.049416667
7/8/2017,0.05125
7/9/2017,0.056416667
7/10/2017,0.05125
7/11/2017,0.048333333
7/12/2017,0.048
7/13/2017,0.04875
7/14/2017,0.050333333
7/15/2017,0.045666667
7/16/2017,0.042166667
7/17/2017,0.040333333
7/18/2017,0.047583333
7/19/2017,0.045
7/20/2017,0.0425
7/21/2017,0.0395
7/22/2017,0.036833333
7/23/2017,0.03125
7/24/2017,0.03675
7/25/2017,0.039083333
7/26/2017,0.034583333
7/27/2017,0.03425
7/28/2017,0.036
7/29/2017,0.030083333
7/30/2017,0.025166667
7/31/2017,0.0215
8/1/2017,0.018166667
8/2/2017,0.020916667
8/3/2017,0.0235
8/4/2017,0.021916667
8/5/2017,0.019
8/6/2017,0.016
8/7/2017,0.009
8/8/2017,0.016166667
8/9/2017,0.013166667
8/10/2017,0.016166667
8/11/2017,0.015
8/12/2017,0.026666667
8/13/2017,0.097166667
8/14/2017,0.091
8/15/2017,0.09125
8/16/2017,0.08575
8/17/2017,0.078
8/18/2017,0.071166667
8/19/2017,0.06775
8/20/2017,0.062916667
8/21/2017,0.05675
8/22/2017,0.055666667
8/23/2017,0.117
8/24/2017,0.124666667
8/25/2017,0.115666667
8/26/2017,0.105
8/27/2017,0.0925
8/28/2017,0.08325
8/29/2017,0.073583333
8/30/2017,0.066416667
8/31/2017,0.05975
9/1/2017,0.053166667
9/2/2017,0.04425
9/3/2017,0.0535
9/4/2017,0.066833333
9/5/2017,0.061333333
9/6/2017,0.07025
9/7/2017,0.085166667
9/8/2017,0.08275
9/9/2017,0.072916667
9/10/2017,0.065833333
9/11/2017,0.060333333
9/12/2017,0.0565
9/13/2017,0.053916667
9/14/2017,0.05
9/15/2017,0.04975
9/16/2017,0.04775
9/17/2017,0.04575
9/18/2017,0.044416667
9/19/2017,0.041166667
9/20/2017,0.037333333
9/21/2017,0.036666667
9/22/2017,0.0335
9/23/2017,0.02975
9/24/2017,0.02875
9/25/2017,0.027166667
9/26/2017,0.0275
9/27/2017,0.027333333
9/28/2017,0.025333333
9/29/2017,0.021083333
9/30/2017,0.020083333
10/1/2017,0.01775
10/2/2017,0.0145
10/3/2017,0.013333333
10/4/2017,0.011416667
10/5/2017,0.011333333
10/6/2017,0.014916667
10/7/2017,0.018583333
10/8/2017,0.020916667
10/9/2017,0.0365
10/10/2017,0.047
10/11/2017,0.0425
10/12/2017,0.037083333
10/13/2017,0.028416667
10/14/2017,0.0215
10/15/2017,0.02175
10/16/2017,0.026
10/17/2017,0.006166667
10/18/2017,-0.009166667
10/19/2017,-0.020916667
10/20/2017,-0.035
10/21/2017,-0.059333333
10/22/2017,-0.082916667
10/23/2017,-0.107916667
10/24/2017,-0.126416667
10/25/2017,-0.13075
10/26/2017,-0.154416667
10/27/2017,-0.182333333
10/28/2017,-0.206166667
10/29/2017,-0.2115
10/30/2017,-0.162166667
10/31/2017,-0.172166667
11/1/2017,-0.19225
11/2/2017,-0.206083333
11/3/2017,-0.216
11/4/2017,-0.24725
11/5/2017,-0.28475
11/6/2017,-0.310333333
11/7/2017,-0.335333333
11/8/2017,-0.3705
11/9/2017,-0.406166667
11/10/2017,-0.43525
11/11/2017,-0.484833333
11/12/2017,-0.511916667
11/13/2017,-0.539666667
11/14/2017,-0.570666667
11/15/2017,-0.601833333
11/16/2017,-0.6285
11/17/2017,-0.666166667
11/18/2017,-0.722583333
11/19/2017,-0.7455
11/20/2017,-0.794666667
11/21/2017,-0.84625
11/22/2017,-0.889083333
11/23/2017,-0.93725
11/24/2017,-0.984916667
11/25/2017,-1.031416667
11/26/2017,-1.07125
11/27/2017,-1.12325
11/28/2017,-1.19475
11/29/2017,-1.27525
11/30/2017,-1.386166667
12/1/2017,-1.59625
12/2/2017,-2.08825
12/3/2017,-2.123833333
12/4/2017,-1.435833333
12/5/2017,-1.437583333
12/6/2017,-1.48075
12/7/2017,-1.964416667
12/8/2017,-1.924416667
12/9/2017,-1.724166667
12/10/2017,-1.555
12/11/2017,-1.647833333
12/12/2017,-1.782875
12/13/2017,
12/14/2017,-1.558
12/15/2017,-1.571583333
12/16/2017,-1.5665
12/17/2017,-1.5715
12/18/2017,-1.548083333
12/19/2017,-1.525666667
12/20/2017,-1.507916667
12/21/2017,-1.51025
12/22/2017,-1.50125
12/23/2017,-1.478833333
12/24/2017,-1.453583333
12/25/2017,-1.437583333
12/26/2017,-1.440083333
12/27/2017,-1.463583333
12/28/2017,-1.480833333
12/29/2017,-1.472416667
12/30/2017,-1.45225
12/31/2017,-1.45075
1/1/2018,-1.4755
1/2/2018,-1.438916667
1/3/2018,-1.420916667
1/4/2018,-1.383
1/5/2018,-1.387083333
1/6/2018,-1.407666667
1/7/2018,-1.415583333
1/8/2018,-1.344416667
1/9/2018,-1.317166667
1/10/2018,-1.320166667
1/11/2018,-1.30225
1/12/2018,-1.25125
1/13/2018,-1.0165
1/14/2018,-0.937916667
1/15/2018,-0.889916667
1/16/2018,-0.848416667
1/17/2018,-0.818666667
1/18/2018,-0.824
1/19/2018,-0.814333333
1/20/2018,-0.809333333
1/21/2018,-0.80225
1/22/2018,-0.80725
1/23/2018,-0.79525
1/24/2018,-0.755727273
1/25/2018,-0.770333333
1/26/2018,-0.784333333
1/27/2018,-0.784333333
1/28/2018,-0.781583333
1/29/2018,-0.794833333
1/30/2018,-0.815666667
1/31/2018,-0.847666667
2/1/2018,-0.856833333
2/2/2018,-0.88125
2/3/2018,-0.932
2/4/2018,-0.921583333
2/5/2018,-0.918583333
2/6/2018,-0.95325
2/7/2018,-0.9685
2/8/2018,-0.976833333
2/9/2018,-1.009
2/10/2018,-1.010833333
2/11/2018,-1.015916667
2/12/2018,-0.997416667
2/13/2018,-1.007333333
2/14/2018,-1.004666667
2/15/2018,-1.008666667
2/16/2018,-1.001583333
2/17/2018,-0.997833333
2/18/2018,-0.984333333
2/19/2018,-0.994416667
2/20/2018,-0.953
2/21/2018,-0.8785
2/22/2018,-0.795416667
2/23/2018,-0.732583333
2/24/2018,-0.664083333
2/25/2018,-0.60875
2/26/2018,-0.55225
2/27/2018,-0.52175
2/28/2018,-0.508083333
3/1/2018,-0.49725
3/2/2018,-0.473416667
3/3/2018,-0.449916667
3/4/2018,-0.444
3/5/2018,-0.442833333
3/6/2018,-0.448083333
3/7/2018,-0.44975
3/8/2018,-0.434916667
3/9/2018,-0.441416667
3/10/2018,-0.44225
3/11/2018,-0.458666667
3/12/2018,-0.473916667
3/13/2018,-0.484083333
3/14/2018,-0.48275
3/15/2018,-0.477
3/16/2018,-0.49275
3/17/2018,-0.51225
3/18/2018,-0.552333333
3/19/2018,-0.562333333
3/20/2018,-0.5785
3/21/2018,-0.589583333
3/22/2018,-0.580583333
3/23/2018,-0.567833333
3/24/2018,-0.55525
3/25/2018,-0.543833333
3/26/2018,-0.532083333
3/27/2018,-0.519833333
3/28/2018,-0.499833333
3/29/2018,-0.485083333
3/30/2018,-0.454416667
3/31/2018,-0.416083333
4/1/2018,-0.37
4/2/2018,-0.335
4/3/2018,-0.29625
4/4/2018,-0.2395
4/5/2018,-0.196583333
4/6/2018,-0.16475
4/7/2018,-0.09875
4/8/2018,-0.063083333
4/9/2018,-0.0335
4/10/2018,0.000166667
4/11/2018,0.022833333
4/12/2018,0.04025
4/13/2018,0.056666667
4/14/2018,0.069
4/15/2018,0.079166667
4/16/2018,0.1005
4/17/2018,0.144166667
4/18/2018,0.139583333
4/19/2018,0.1265
4/20/2018,0.1125
4/21/2018,0.097916667
4/22/2018,0.083916667
4/23/2018,0.076
4/24/2018,0.070833333
4/25/2018,0.071333333
4/26/2018,0.075333333
4/27/2018,0.07025
4/28/2018,0.071416667
4/29/2018,0.083416667
4/30/2018,0.085083333
5/1/2018,0.08725
5/2/2018,0.086916667
5/3/2018,0.081666667
5/4/2018,0.08175
5/5/2018,0.085333333
5/6/2018,0.07525
5/7/2018,0.077083333
5/8/2018,0.070833333
5/9/2018,0.075333333
5/10/2018,0.08075
5/11/2018,0.07975
5/12/2018,0.082333333
5/13/2018,0.08425
5/14/2018,0.083583333
5/15/2018,0.089416667
5/16/2018,0.110333333
5/17/2018,0.11
5/18/2018,0.110416667
5/19/2018,0.10825
5/20/2018,0.116166667
5/21/2018,0.1125
5/22/2018,0.110833333
5/23/2018,0.105583333
5/24/2018,0.10075
5/25/2018,0.092
5/26/2018,0.084166667
5/27/2018,0.082083333
5/28/2018,0.079333333
5/29/2018,0.070666667
5/30/2018,0.064
5/31/2018,0.05775
6/1/2018,0.056416667
6/2/2018,0.056416667
6/3/2018,0.052916667
6/4/2018,0.055166667
6/5/2018,0.057416667
6/6/2018,0.052833333
6/7/2018,0.049333333
6/8/2018,0.045583333
6/9/2018,0.043666667
6/10/2018,0.0415
6/11/2018,0.03425
6/12/2018,0.030416667
6/13/2018,0.025083333
6/14/2018,0.025083333
6/15/2018,0.015083333
6/16/2018,0.014666667
6/17/2018,0.012166667
6/18/2018,0.015
6/19/2018,0.03075
6/20/2018,0.028916667
6/21/2018,0.024583333
6/22/2018,0.020166667
6/23/2018,0.014333333
6/24/2018,0.014083333
6/25/2018,0.018333333
6/26/2018,0.014083333
6/27/2018,0.012666667
6/28/2018,0.047583333
6/29/2018,0.055333333
6/30/2018,0.0475
7/1/2018,0.03975
7/2/2018,0.034166667
7/3/2018,0.02925
7/4/2018,0.024
7/5/2018,0.02125
7/6/2018,0.01875
7/7/2018,0.0095
7/8/2018,0.004583333
7/9/2018,0.00175
7/10/2018,-0.003916667
7/11/2018,-0.008333333
7/12/2018,-0.01175
7/13/2018,-0.01725
7/14/2018,-0.019083333
7/15/2018,-0.0105
7/16/2018,-0.009
7/17/2018,0.0155
7/18/2018,0.038
7/19/2018,0.030083333
7/20/2018,0.024
7/21/2018,0.014333333
7/22/2018,0.004583333
7/23/2018,0.018333333
7/24/2018,0.020083333
7/25/2018,0.018166667
7/26/2018,0.046166667
7/27/2018,0.043583333
7/28/2018,0.041166667
7/29/2018,0.035833333
7/30/2018,0.027166667
7/31/2018,0.023916667
8/1/2018,0.03375
8/2/2018,0.059
8/3/2018,0.067166667
8/4/2018,0.08
8/5/2018,0.080833333
8/6/2018,0.077583333
8/7/2018,0.075916667
8/8/2018,0.085666667
8/9/2018,0.08275
8/10/2018,0.074
8/11/2018,0.076
8/12/2018,0.118166667
8/13/2018,0.128083333
8/14/2018,0.133916667
8/15/2018,0.125666667
8/16/2018,0.114916667
8/17/2018,0.10975
8/18/2018,0.178916667
8/19/2018,0.17875
8/20/2018,0.163583333
8/21/2018,0.146083333
8/22/2018,0.14225
8/23/2018,0.129833333
8/24/2018,0.114166667
8/25/2018,0.101583333
8/26/2018,0.089416667
8/27/2018,0.080166667
8/28/2018,0.073
8/29/2018,0.06525
8/30/2018,0.058916667
8/31/2018,0.051
9/1/2018,0.043833333
9/2/2018,0.038666667
9/3/2018,0.035333333
9/4/2018,0.032
9/5/2018,0.02925
9/6/2018,0.031916667
9/7/2018,0.039333333
9/8/2018,0.033583333
9/9/2018,0.025333333
9/10/2018,0.024333333
9/11/2018,0.059833333
9/12/2018,0.091583333
9/13/2018,0.137416667
9/14/2018,0.133416667
9/15/2018,0.122833333
9/16/2018,0.11
9/17/2018,0.097083333
9/18/2018,0.136416667
9/19/2018,0.1585
9/20/2018,0.1285
9/21/2018,0.09675
9/22/2018,0.07575
9/23/2018,0.050583333
9/24/2018,0.024583333
9/25/2018,0.026166667
9/26/2018,0.0585
9/27/2018,0.086
9/28/2018,0.087583333
9/29/2018,0.076666667
9/30/2018,0.059416667
10/1/2018,0.039333333
10/2/2018,0.034916667
10/3/2018,0.0635
10/4/2018,0.063916667
10/5/2018,0.057166667
10/6/2018,0.041833333
10/7/2018,0.026
10/8/2018,0.015
10/9/2018,0.0038
