,2014,2015,2016,2017
normal_level,0.004,-0.076,0.03,0.058
wd_level,-0.334,-0.35200000000000004,-0.253,-0.34
T_startdrawdown,276.0,274.0,322.0,285.0
T_stopdrawdown,320.0,322.0,340.0,339.0
T_startrefill,457.0,435.0,436.0,423.0
T_stoprefill,484.0,478.0,455.0,437.0
Qmin_recession,0.0082404735933361,0.0082404735933361,0.0082404735933361,0.0082404735933361
Qmin_refill,0.0082404735933361,0.0082404735933361,0.0082404735933361,0.0082404735933361
Qmin_drawdown,0.0082404735933361,0.0082404735933361,0.0082404735933361,0.0082404735933361
Qmin_summer,0.0082404735933361,0.0082404735933361,0.0082404735933361,0.0082404735933361
Qmax_recession,0.3722597687174755,0.3722597687174755,0.3722597687174755,0.3722597687174755
Qmax_refill,0.3722597687174755,0.3722597687174755,0.3722597687174755,0.3722597687174755
Qmax_drawdown,0.3722597687174755,0.3722597687174755,0.3722597687174755,0.3722597687174755
Qmax_summer,0.3722597687174755,0.3722597687174755,0.3722597687174755,0.3722597687174755
alpha,0.5,0.5,0.5,0.5
beta,0.5,0.5,0.5,0.5
gamma,0.5,0.5,0.5,0.5
theta,0.5,0.5,0.5,0.5
