,2014,2015,2016,2017
normal_level,0.003,-0.11,-0.007,0.025
wd_level,-0.343,-0.19,-0.271,-0.226
T_startdrawdown,290,284,275,329
T_stopdrawdown,319,339,319,339
T_startrefill,398,438,450,477
T_stoprefill,494,532,500,493
Qmin_recession,0.004140017,0.004140017,0.004140017,0.004140017
Qmin_refill,0.004140017,0.004140017,0.004140017,0.004140017
Qmin_drawdown,0.004140017,0.004140017,0.004140017,0.004140017
Qmin_summer,0.004140017,0.004140017,0.004140017,0.004140017
Qmax_recession,0.219707892,0.219707892,0.219707892,0.219707892
Qmax_refill,0.219707892,0.219707892,0.219707892,0.219707892
Qmax_drawdown,0.219707892,0.219707892,0.219707892,0.219707892
Qmax_summer,0.219707892,0.219707892,0.219707892,0.219707892
alpha,0.5,0.5,0.5,0.5
beta,0.5,0.5,0.5,0.5
gamma,0.5,0.5,0.5,0.5
theta,0.5,0.5,0.5,0.5
