,2015,2016,2017
normal_level,-0.112,-0.052,-0.029
wd_level,-0.516,-0.547,-0.501
T_startdrawdown,309,290,290
T_stopdrawdown,309,310,314
T_startrefill,471,483,481
T_stoprefill,480,499,488
Qmin_recession,0.097055178,0.097055178,0.097055178
Qmin_refill,0.097055178,0.097055178,0.097055178
Qmin_drawdown,0.097055178,0.097055178,0.097055178
Qmin_summer,0.097055178,0.097055178,0.097055178
Qmax_recession,4.593762782,4.593762782,4.593762782
Qmax_refill,4.593762782,4.593762782,4.593762782
Qmax_drawdown,4.593762782,4.593762782,4.593762782
Qmax_summer,4.593762782,4.593762782,4.593762782
alpha,0.5,0.5,0.5
beta,0.5,0.5,0.5
gamma,0.5,0.5,0.5
theta,0.5,0.5,0.5
