Date,In-situ Water Level (Mean) of Lake Onota
2014-10-13,-0.17825
2014-10-14,-0.17866666666666667
2014-10-15,-0.18099999999999997
2014-10-16,-0.15683333333333332
2014-10-17,-0.1440833333333333
2014-10-18,-0.14641666666666667
2014-10-19,-0.14858333333333332
2014-10-20,-0.16016666666666668
2014-10-21,-0.16308333333333333
2014-10-22,-0.16483333333333333
2014-10-23,-0.13858333333333334
2014-10-24,-0.13733333333333334
2014-10-25,-0.15533333333333332
2014-10-26,-0.16725
2014-10-27,-0.18675
2014-10-28,-0.21
2014-10-29,-0.22525000000000003
2014-10-30,-0.24650000000000002
2014-10-31,-0.27808333333333335
2014-11-01,-0.316
2014-11-02,-0.35791666666666666
2014-11-03,-0.3998333333333333
2014-11-04,-0.43733333333333335
2014-11-05,-0.46799999999999997
2014-11-06,-0.5088333333333334
2014-11-07,-0.5418333333333334
2014-11-08,-0.5815
2014-11-09,-0.6191666666666666
2014-11-10,-0.6609166666666667
2014-11-11,-0.7006666666666667
2014-11-12,-0.7364999999999999
2014-11-13,-0.7766666666666667
2014-11-14,-0.81175
2014-11-15,-0.8591666666666667
2014-11-16,-0.8999166666666666
2014-11-17,-0.9216666666666667
2014-11-18,-0.9355833333333333
2014-11-19,-0.99175
2014-11-20,-1.0181666666666667
2014-11-21,-1.0636666666666665
2014-11-22,-1.1095
2014-11-23,-1.12075
2014-11-24,-1.0960833333333333
2014-11-25,-1.0750833333333334
2014-11-26,-1.0623333333333334
2014-11-27,-1.03725
2014-11-28,-1.0281666666666667
2014-11-29,-1.0260833333333332
2014-11-30,-1.01075
2014-12-01,-1.0208333333333333
2014-12-02,-1.0408333333333333
2014-12-03,-1.0518333333333334
2014-12-04,-1.0653333333333335
2014-12-05,-1.092
2014-12-06,-1.0879166666666666
2014-12-07,-1.0864166666666668
2014-12-08,-1.1070833333333334
2014-12-09,-1.065
2014-12-10,-0.9789166666666667
2014-12-11,-0.923
2014-12-12,-0.8868333333333333
2014-12-13,-0.8588333333333332
2014-12-14,-0.835
2014-12-15,-0.8123333333333332
2014-12-16,-0.79275
2014-12-17,-0.7634166666666666
2014-12-18,-0.7312500000000001
2014-12-19,-0.7153333333333333
2014-12-20,-0.7162499999999999
2014-12-21,-0.7085833333333333
2014-12-22,-0.7016666666666667
2014-12-23,-0.6903333333333334
2014-12-24,-0.6719166666666667
2014-12-25,-0.62525
2014-12-26,-0.5726666666666667
2014-12-27,-0.5446666666666667
2014-12-28,-0.5101666666666667
2014-12-29,-0.48166666666666663
2014-12-30,-0.48275
2014-12-31,-0.4959166666666666
2015-01-01,-0.5043333333333333
2015-01-02,-0.4996666666666667
2015-01-03,-0.51525
2015-01-04,-0.5010833333333333
2015-01-05,-0.4991666666666667
2015-01-06,-0.5370833333333334
2015-01-07,-0.56225
2015-01-08,-0.612
2015-01-09,-0.5805833333333333
2015-01-10,-0.6044999999999999
2015-01-11,-0.6375833333333333
2015-01-12,-0.6028333333333333
2015-01-13,-0.6476666666666667
2015-01-14,-0.71125
2015-01-15,-0.6995
2015-01-16,-0.7056666666666667
2015-01-17,-0.7545833333333333
2015-01-18,-0.7294166666666667
2015-01-19,-0.6955
2015-01-20,-0.714
2015-01-21,-0.7524166666666666
2015-01-22,-0.7548333333333334
2015-01-23,-0.7758333333333334
2015-01-24,-0.7874166666666667
2015-01-25,-0.8084166666666667
2015-01-26,-0.8534999999999999
2015-01-27,-0.8713333333333333
2015-01-28,-0.8969999999999999
2015-01-29,-0.9369999999999999
2015-01-30,-0.9108333333333333
2015-01-31,-0.9908333333333332
2015-02-01,-0.9785833333333334
2015-02-02,-0.9974166666666666
2015-02-03,-1.0554166666666667
2015-02-04,-1.06175
2015-02-05,-1.0481666666666667
2015-02-06,-1.1270833333333334
2015-02-07,-1.1064166666666668
2015-02-08,-1.1154166666666667
2015-02-09,-1.1420833333333333
2015-02-10,-1.15425
2015-02-11,-1.2073333333333334
2015-02-12,-1.2208333333333334
2015-02-13,-1.3062500000000001
2015-02-14,-1.3219166666666666
2015-02-15,-1.3384166666666666
2015-02-16,-1.4213333333333333
2015-02-17,-1.4025833333333333
2015-02-18,-1.442
2015-02-19,-1.4531666666666665
2015-02-20,-1.5439166666666668
2015-02-21,-1.6005
2015-02-22,-1.5601666666666667
2015-02-23,-1.7168178497101039
2015-02-24,-1.9817526293983163
2015-02-25,-2.1406666666666667
2015-02-26,-2.041363982945351
2015-02-27,-1.7800820416438974
2015-02-28,-1.5151666666666666
2015-03-01,-1.372428811598314
2015-03-02,-1.3475399487446744
2015-03-03,-1.4036366800918783
2015-03-04,-1.5038556076260545
2015-03-05,-1.6113333333333335
2015-03-06,-1.6766666666666667
2015-03-07,-1.6430000000000002
2015-03-08,-1.6004545454545456
2015-03-09,-1.6031666666666666
2015-03-10,-1.5863333333333334
2015-03-11,-1.5575833333333333
2015-03-12,-1.5479166666666666
2015-03-13,-1.5511666666666668
2015-03-14,-1.5344166666666668
2015-03-15,-1.5119166666666668
2015-03-16,-1.505
2015-03-17,-1.4845833333333334
2015-03-18,-1.4886666666666668
2015-03-19,-1.4835
2015-03-20,-1.4705000000000001
2015-03-21,-1.4489166666666666
2015-03-22,-1.44575
2015-03-23,-1.4575833333333332
2015-03-24,-1.439
2015-03-25,-1.421
2015-03-26,-1.3929166666666666
2015-03-27,-1.3531666666666666
2015-03-28,-1.3325
2015-03-29,-1.32325
2015-03-30,-1.2980833333333333
2015-03-31,-1.27575
2015-04-01,-1.25775
2015-04-02,-1.2379166666666668
2015-04-03,-1.18725
2015-04-04,-1.0905833333333332
2015-04-05,-1.0025833333333334
2015-04-06,-0.94075
2015-04-07,-0.8770000000000001
2015-04-08,-0.8189166666666666
2015-04-09,-0.761
2015-04-10,-0.70175
2015-04-11,-0.6311666666666667
2015-04-12,-0.5929166666666666
2015-04-13,-0.5541666666666667
2015-04-14,-0.47741666666666666
2015-04-15,-0.41324999999999995
2015-04-16,-0.36916666666666664
2015-04-17,-0.31266666666666665
2015-04-18,-0.2644166666666667
2015-04-19,-0.23099999999999998
2015-04-20,-0.19766666666666666
2015-04-21,-0.15308333333333332
2015-04-22,-0.11075
2015-04-23,-0.050249999999999996
2015-04-24,-0.018
2015-04-25,-0.00175
2015-04-26,0.011166666666666667
2015-04-27,0.014499999999999999
2015-04-28,0.015
2015-04-29,0.014
2015-04-30,0.014249999999999999
2015-05-01,0.011083333333333334
2015-05-02,0.005916666666666667
2015-05-03,0.003833333333333333
2015-05-04,-0.0018333333333333333
2015-05-05,-0.005916666666666667
2015-05-06,-0.011500000000000002
2015-05-07,-0.015916666666666666
2015-05-08,-0.021500000000000002
2015-05-09,-0.023083333333333334
2015-05-10,-0.02825
2015-05-11,-0.0315
2015-05-12,-0.0325
2015-05-13,-0.04041666666666666
2015-05-14,-0.049499999999999995
2015-05-15,-0.05483333333333334
2015-05-16,-0.04958333333333333
2015-05-17,-0.04716666666666666
2015-05-18,-0.04666666666666667
2015-05-19,-0.0415
2015-05-20,-0.03725
2015-05-21,-0.04574999999999999
2015-05-22,-0.04708333333333333
2015-05-23,-0.051916666666666667
2015-05-24,-0.05241666666666667
2015-05-25,-0.052
2015-05-26,-0.050249999999999996
2015-05-27,-0.041
2015-05-28,-0.0265
2015-05-29,-0.018833333333333334
2015-05-30,-0.020416666666666666
2015-05-31,-0.01975
2015-06-01,-0.010272727272727272
2015-06-02,0.011749999999999998
2015-06-03,0.0065
2015-06-04,0.0005833333333333334
2015-06-05,-0.005750000000000001
2015-06-06,-0.005166666666666667
2015-06-07,-0.009166666666666667
2015-06-08,-0.010750000000000001
2015-06-09,0.008166666666666668
2015-06-10,0.015583333333333333
2015-06-11,0.010583333333333333
2015-06-12,0.00675
2015-06-13,0.0255
2015-06-14,0.03525
2015-06-15,0.07075
2015-06-16,0.09591666666666666
2015-06-17,0.09908333333333334
2015-06-18,0.09175
2015-06-19,0.07808333333333334
2015-06-20,0.06983333333333333
2015-06-21,0.105
2015-06-22,0.11833333333333333
2015-06-23,0.10475
2015-06-24,0.09433333333333332
2015-06-25,0.08
2015-06-26,0.06891666666666667
2015-06-27,0.06058333333333333
2015-06-28,0.07225
2015-06-29,0.07116666666666667
2015-06-30,0.06508333333333334
2015-07-01,0.12041666666666667
2015-07-02,0.16508333333333333
2015-07-03,0.15633333333333332
2015-07-04,0.13908333333333334
2015-07-05,0.12266666666666666
2015-07-06,0.10708333333333332
2015-07-07,0.09725
2015-07-08,0.08975
2015-07-09,0.08066666666666666
2015-07-10,0.11975000000000001
2015-07-11,0.10941666666666666
2015-07-12,0.09816666666666667
2015-07-13,0.08758333333333333
2015-07-14,0.08358333333333334
2015-07-15,0.07291666666666667
2015-07-16,0.06266666666666666
2015-07-17,0.050916666666666666
2015-07-18,0.049499999999999995
2015-07-19,0.06441666666666666
2015-07-20,0.06125
2015-07-21,0.05216666666666667
2015-07-22,0.04058333333333333
2015-07-23,0.04033333333333333
2015-07-24,0.0335
2015-07-25,0.037333333333333336
2015-07-26,0.050916666666666666
2015-07-27,0.04933333333333333
2015-07-28,0.04533333333333334
2015-07-29,0.040916666666666664
2015-07-30,0.03891666666666667
2015-07-31,0.03575
2015-08-01,0.03241666666666667
2015-08-02,0.028083333333333335
2015-08-03,0.022583333333333334
2015-08-04,0.028916666666666663
2015-08-05,0.03333333333333333
2015-08-06,0.02675
2015-08-07,0.02033333333333333
2015-08-08,0.0155
2015-08-09,0.013416666666666667
2015-08-10,0.011666666666666665
2015-08-11,0.02316666666666667
2015-08-12,0.034333333333333334
2015-08-13,0.028666666666666663
2015-08-14,0.02383333333333333
2015-08-15,0.026
2015-08-16,0.0345
2015-08-17,0.029166666666666664
2015-08-18,0.0255
2015-08-19,0.023083333333333334
2015-08-20,0.01625
2015-08-21,0.023249999999999996
2015-08-22,0.023083333333333334
2015-08-23,0.017249999999999998
2015-08-24,0.015083333333333332
2015-08-25,0.022083333333333333
2015-08-26,0.024166666666666666
2015-08-27,0.016333333333333335
2015-08-28,0.008916666666666666
2015-08-29,0.005333333333333333
2015-08-30,0.0025833333333333333
2015-08-31,8.333333333333333e-05
2015-09-01,0.0005
2015-09-02,-0.003833333333333333
2015-09-03,-0.009583333333333333
2015-09-04,-0.017083333333333336
2015-09-05,-0.025083333333333332
2015-09-06,-0.03275
2015-09-07,-0.03941666666666666
2015-09-08,-0.04558333333333334
2015-09-09,-0.051916666666666667
2015-09-10,-0.05508333333333334
2015-09-11,-0.049666666666666665
2015-09-12,-0.05216666666666667
2015-09-13,-0.03366666666666667
2015-09-14,-0.036
2015-09-15,-0.04724999999999999
2015-09-16,-0.050833333333333335
2015-09-17,-0.05375
2015-09-18,-0.06141666666666667
2015-09-19,-0.06633333333333334
2015-09-20,-0.0735
2015-09-21,-0.08533333333333333
2015-09-22,-0.09525
2015-09-23,-0.10266666666666667
2015-09-24,-0.10925
2015-09-25,-0.11533333333333334
2015-09-26,-0.12258333333333334
2015-09-27,-0.13133333333333333
2015-09-28,-0.13866666666666666
2015-09-29,-0.14283333333333334
2015-09-30,-0.08825
2015-10-01,-0.06858333333333333
2015-10-02,-0.07908333333333332
2015-10-03,-0.08908333333333333
2015-10-04,-0.09999999999999999
2015-10-05,-0.10675
2015-10-06,-0.11033333333333334
2015-10-07,-0.11308333333333333
2015-10-08,-0.11825000000000001
2015-10-09,-0.11958333333333333
2015-10-10,-0.12216666666666666
2015-10-11,-0.13025
2015-10-12,-0.13558333333333333
2015-10-13,-0.13741666666666666
2015-10-14,-0.13608333333333333
2015-10-15,-0.14841666666666667
2015-10-16,-0.15725
2015-10-17,-0.16933333333333334
2015-10-18,-0.19325
2015-10-19,-0.21241666666666667
2015-10-20,-0.22341666666666668
2015-10-21,-0.23224999999999998
2015-10-22,-0.23258333333333334
2015-10-23,-0.23408333333333334
2015-10-24,-0.24133333333333332
2015-10-25,-0.22724999999999998
2015-10-26,-0.22291666666666665
2015-10-27,-0.22583333333333333
2015-10-28,-0.22266666666666668
2015-10-29,-0.1795
2015-10-30,-0.17008333333333334
2015-10-31,-0.17441666666666666
2015-11-01,-0.17200000000000001
2015-11-02,-0.171
2015-11-03,-0.18016666666666667
2015-11-04,-0.18933333333333335
2015-11-05,-0.20033333333333334
2015-11-06,-0.20991666666666667
2015-11-07,-0.21783333333333332
2015-11-08,-0.23258333333333334
2015-11-09,-0.25075
2015-11-10,-0.2628333333333333
2015-11-11,-0.24333333333333332
2015-11-12,-0.2315
2015-11-13,-0.22375
2015-11-14,-0.23116666666666666
2015-11-15,-0.242
2015-11-16,-0.2505833333333333
2015-11-17,-0.27591666666666664
2015-11-18,-0.30241666666666667
2015-11-19,-0.3214166666666667
2015-11-20,-0.30233333333333334
2015-11-21,-0.31725
2015-11-22,-0.3299166666666667
2015-11-23,-0.3518333333333333
2015-11-24,-0.37566666666666665
2015-11-25,-0.39525000000000005
2015-11-26,-0.41375
2015-11-27,-0.42924999999999996
2015-11-28,-0.44575000000000004
2015-11-29,-0.4719166666666667
2015-11-30,-0.5039166666666667
2015-12-01,-0.5368333333333334
2015-12-02,-0.5548333333333334
2015-12-03,-0.56875
2015-12-04,-0.6060833333333333
2015-12-05,-0.6388333333333334
2015-12-06,-0.6770833333333334
2015-12-07,-0.7088333333333333
2015-12-08,-0.7419166666666667
2015-12-09,-0.7725833333333334
2015-12-10,-0.8035833333333334
2015-12-11,-0.8328181818181818
2015-12-12,-0.8645833333333334
2015-12-13,-0.8980833333333335
2015-12-14,-0.9303333333333333
2015-12-15,-0.9308333333333333
2015-12-16,-0.96075
2015-12-17,-0.9662499999999999
2015-12-18,-0.9580833333333333
2015-12-19,-0.9634999999999999
2015-12-20,-0.9764166666666667
2015-12-21,-0.983
2015-12-22,-0.9658333333333333
2015-12-23,-0.9421666666666666
2015-12-24,-0.8996666666666666
2015-12-25,-0.8744999999999999
2015-12-26,-0.85475
2015-12-27,-0.8272499999999999
2015-12-28,-0.8075000000000001
2015-12-29,-0.7832500000000001
2015-12-30,-0.7523333333333334
2015-12-31,-0.7305
2016-01-01,-0.7221666666666667
2016-01-02,-0.7214166666666667
2016-01-03,-0.7207499999999999
2016-01-04,-0.747
2016-01-05,-0.7810833333333335
2016-01-06,-0.7738333333333333
2016-01-07,-0.7776666666666667
2016-01-08,-0.78925
2016-01-09,-0.8035000000000001
2016-01-10,-0.8108333333333334
2016-01-11,-0.8085833333333333
2016-01-12,-0.8340833333333334
2016-01-13,-0.8471666666666667
2016-01-14,-0.8746666666666667
2016-01-15,-0.87325
2016-01-16,-0.8755000000000001
2016-01-17,-0.8833333333333333
2016-01-18,-0.8874166666666667
2016-01-19,-0.8905
2016-01-20,-0.8739166666666667
2016-01-21,-0.86075
2016-01-22,-0.8611666666666666
2016-01-23,-0.8461666666666666
2016-01-24,-0.8482500000000001
2016-01-25,-0.83275
2016-01-26,-0.8205833333333333
2016-01-27,-0.8094166666666668
2016-01-28,-0.8113333333333334
2016-01-29,-0.8043333333333335
2016-01-30,-0.8024166666666668
2016-01-31,-0.7934166666666668
2016-02-01,-0.78825
2016-02-02,-0.7844166666666667
2016-02-03,-0.7766666666666667
2016-02-04,-0.7584166666666667
2016-02-05,-0.754
2016-02-06,-0.7515000000000001
2016-02-07,-0.7456666666666667
2016-02-08,-0.7398333333333333
2016-02-09,-0.7331666666666666
2016-02-10,-0.72225
2016-02-11,-0.7327499999999999
2016-02-12,-0.7593333333333333
2016-02-13,-0.7727499999999999
2016-02-14,-0.8442500000000001
2016-02-15,-0.7955
2016-02-16,-0.6954966751137793
2016-02-17,-0.6198333333333333
2016-02-18,-0.6024999999999999
2016-02-19,-0.5985833333333334
2016-02-20,-0.5716666666666667
2016-02-21,-0.5549166666666667
2016-02-22,-0.55125
2016-02-23,-0.553
2016-02-24,-0.54425
2016-02-25,-0.46944740740732727
2016-02-26,-0.3605560787959621
2016-02-27,-0.27566666666666667
2016-02-28,-0.24825
2016-02-29,-0.23424999999999999
2016-03-01,-0.2325
2016-03-02,-0.22216666666666665
2016-03-03,-0.23558333333333334
2016-03-04,-0.23666666666666666
2016-03-05,-0.23758333333333334
2016-03-06,-0.23083333333333333
2016-03-07,-0.22441666666666668
2016-03-08,-0.21533333333333335
2016-03-09,-0.21108333333333332
2016-03-10,-0.2015
2016-03-11,-0.17516666666666666
2016-03-12,-0.16508333333333333
2016-03-13,-0.1485
2016-03-14,-0.13241666666666665
2016-03-15,-0.11758333333333333
2016-03-16,-0.10116666666666667
2016-03-17,-0.073
2016-03-18,-0.06091666666666667
2016-03-19,-0.05575
2016-03-20,-0.05566666666666667
2016-03-21,-0.0415
2016-03-22,-0.04716666666666666
2016-03-23,-0.042833333333333334
2016-03-24,-0.0425
2016-03-25,-0.036
2016-03-26,-0.03391666666666667
2016-03-27,-0.034
2016-03-28,-0.029
2016-03-29,-0.016
2016-03-30,-0.025416666666666667
2016-03-31,-0.021750000000000002
2016-04-01,-0.020666666666666667
2016-04-02,-0.014666666666666666
2016-04-03,-0.009666666666666667
2016-04-04,-0.020166666666666666
2016-04-05,-0.02266666666666667
2016-04-06,-0.024916666666666667
2016-04-07,-0.008666666666666668
2016-04-08,0.02916666666666667
2016-04-09,0.03833333333333334
2016-04-10,0.042583333333333334
2016-04-11,0.04858333333333333
2016-04-12,0.063
2016-04-13,0.07016666666666667
2016-04-14,0.07991666666666666
2016-04-15,0.08891666666666666
2016-04-16,0.09300000000000001
2016-04-17,0.09475
2016-04-18,0.09925
2016-04-19,0.10008333333333334
2016-04-20,0.09075
2016-04-21,0.08683333333333333
2016-04-22,0.08658333333333333
2016-04-23,0.08341666666666668
2016-04-24,0.07716666666666668
2016-04-25,0.07375
2016-04-26,0.07458333333333333
2016-04-27,0.07375
2016-04-28,0.07175
2016-04-29,0.06858333333333334
2016-04-30,0.06525
2016-05-01,0.06625
2016-05-02,0.06741666666666667
2016-05-03,0.07358333333333333
2016-05-04,0.07633333333333332
2016-05-05,0.07466666666666667
2016-05-06,0.07683333333333334
2016-05-07,0.07908333333333334
2016-05-08,0.08716666666666667
2016-05-09,0.07975
2016-05-10,0.07441666666666667
2016-05-11,0.07275
2016-05-12,0.07375
2016-05-13,0.0765
2016-05-14,0.08591666666666666
2016-05-15,0.08374999999999999
2016-05-16,0.07266666666666667
2016-05-17,0.0605
2016-05-18,0.058166666666666665
2016-05-19,0.05825
2016-05-20,0.05658333333333334
2016-05-21,0.05475
2016-05-22,0.05325
2016-05-23,0.050916666666666666
2016-05-24,0.05308333333333334
2016-05-25,0.052583333333333336
2016-05-26,0.049999999999999996
2016-05-27,0.049499999999999995
2016-05-28,0.04858333333333333
2016-05-29,0.047749999999999994
2016-05-30,0.057749999999999996
2016-05-31,0.07275
2016-06-01,0.06291666666666666
2016-06-02,0.05625
2016-06-03,0.051833333333333335
2016-06-04,0.04666666666666667
2016-06-05,0.05491666666666667
2016-06-06,0.07825
2016-06-07,0.07875
2016-06-08,0.07841666666666666
2016-06-09,0.06091666666666667
2016-06-10,0.049999999999999996
2016-06-11,0.050166666666666665
2016-06-12,0.05591666666666667
2016-06-13,0.04758333333333333
2016-06-14,0.04158333333333333
2016-06-15,0.03991666666666666
2016-06-16,0.03766666666666667
2016-06-17,0.03641666666666667
2016-06-18,0.034083333333333334
2016-06-19,0.03258333333333333
2016-06-20,0.03358333333333333
2016-06-21,0.03341666666666667
2016-06-22,0.026166666666666668
2016-06-23,0.0195
2016-06-24,0.015916666666666666
2016-06-25,0.014083333333333335
2016-06-26,0.013416666666666667
2016-06-27,0.012499999999999999
2016-06-28,0.009916666666666666
2016-06-29,0.01875
2016-06-30,0.014
2016-07-01,0.011833333333333333
2016-07-02,0.022333333333333334
2016-07-03,0.013916666666666667
2016-07-04,0.010416666666666666
2016-07-05,0.013166666666666667
2016-07-06,0.01425
2016-07-07,0.01275
2016-07-08,0.015
2016-07-09,0.023500000000000004
2016-07-10,0.028083333333333335
2016-07-11,0.025416666666666667
2016-07-12,0.021916666666666668
2016-07-13,0.01775
2016-07-14,0.016583333333333335
2016-07-15,0.021666666666666667
2016-07-16,0.028583333333333336
2016-07-17,0.025916666666666668
2016-07-18,0.023000000000000003
2016-07-19,0.018333333333333333
2016-07-20,0.010333333333333333
2016-07-21,0.004333333333333333
2016-07-22,0.0013333333333333333
2016-07-23,-0.002
2016-07-24,-0.0035
2016-07-25,-0.008166666666666668
2016-07-26,-0.015
2016-07-27,-0.024333333333333335
2016-07-28,-0.0315
2016-07-29,-0.031
2016-07-30,-0.036333333333333336
2016-07-31,-0.024416666666666666
2016-08-01,0.0
2016-08-02,0.011749999999999998
2016-08-03,0.012416666666666666
2016-08-04,0.009333333333333334
2016-08-05,0.007166666666666666
2016-08-06,0.00125
2016-08-07,-0.0015000000000000002
2016-08-08,-0.008583333333333333
2016-08-09,-0.013333333333333334
2016-08-10,-0.012249999999999999
2016-08-11,-0.009583333333333333
2016-08-12,-0.0031666666666666666
2016-08-13,0.014416666666666666
2016-08-14,0.027083333333333334
2016-08-15,0.021416666666666667
2016-08-16,0.01625
2016-08-17,0.014583333333333332
2016-08-18,0.007
2016-08-19,0.003833333333333333
2016-08-20,-0.0005833333333333332
2016-08-21,-0.0035
2016-08-22,0.015
2016-08-23,0.006333333333333333
2016-08-24,0.00025
2016-08-25,-0.00125
2016-08-26,-0.004333333333333334
2016-08-27,-0.004833333333333333
2016-08-28,-0.007833333333333333
2016-08-29,-0.011250000000000001
2016-08-30,-0.015333333333333332
2016-08-31,-0.021750000000000002
2016-09-01,-0.02791666666666667
2016-09-02,-0.034333333333333334
2016-09-03,-0.045000000000000005
2016-09-04,-0.05308333333333334
2016-09-05,-0.06166666666666667
2016-09-06,-0.06991666666666667
2016-09-07,-0.07591666666666667
2016-09-08,-0.08058333333333333
2016-09-09,-0.07958333333333333
2016-09-10,-0.0855
2016-09-11,-0.08075
2016-09-12,-0.08933333333333333
2016-09-13,-0.09775
2016-09-14,-0.103
2016-09-15,-0.11283333333333334
2016-09-16,-0.12183333333333334
2016-09-17,-0.12975
2016-09-18,-0.13375
2016-09-19,-0.10616666666666667
2016-09-20,-0.10191666666666666
2016-09-21,-0.10416666666666667
2016-09-22,-0.11191666666666666
2016-09-23,-0.11775000000000001
2016-09-24,-0.12391666666666667
2016-09-25,-0.13591666666666666
2016-09-26,-0.14675
2016-09-27,-0.1435833333333333
2016-09-28,-0.14733333333333332
2016-09-29,-0.15883333333333335
2016-09-30,-0.16841666666666666
2016-10-01,-0.1755
2016-10-02,-0.18075
2016-10-03,-0.18475
2016-10-04,-0.18958333333333333
2016-10-05,-0.1965
2016-10-06,-0.20166666666666666
2016-10-07,-0.206
2016-10-08,-0.21166666666666667
2016-10-09,-0.216
2016-10-10,-0.22566666666666668
2016-10-11,-0.23866666666666667
2016-10-12,-0.24183333333333334
2016-10-13,-0.245
2016-10-14,-0.25016666666666665
2016-10-15,-0.25725000000000003
2016-10-16,-0.2644166666666667
2016-10-17,-0.26733333333333337
2016-10-18,-0.2675
2016-10-19,-0.269
2016-10-20,-0.27425000000000005
2016-10-21,-0.2688333333333333
2016-10-22,-0.24408333333333332
2016-10-23,-0.19516666666666668
2016-10-24,-0.20125
2016-10-25,-0.20883333333333332
2016-10-26,-0.2175
2016-10-27,-0.22183333333333333
2016-10-28,-0.20516666666666664
2016-10-29,-0.20441666666666666
2016-10-30,-0.20225
2016-10-31,-0.2020833333333333
2016-11-01,-0.2095
2016-11-02,-0.209
2016-11-03,-0.20641666666666666
2016-11-04,-0.20383333333333334
2016-11-05,-0.21024999999999996
2016-11-06,-0.21333333333333335
2016-11-07,-0.22024999999999997
2016-11-08,-0.2383333333333333
2016-11-09,-0.2559166666666667
2016-11-10,-0.2786666666666667
2016-11-11,-0.29716666666666663
2016-11-12,-0.32458333333333333
2016-11-13,-0.3461666666666667
2016-11-14,-0.36866666666666664
2016-11-15,-0.3818333333333333
2016-11-16,-0.3825
2016-11-17,-0.40041666666666664
2016-11-18,-0.4340833333333333
2016-11-19,-0.47
2016-11-20,-0.4850833333333333
2016-11-21,-0.5068333333333334
2016-11-22,-0.5425000000000001
2016-11-23,-0.5823333333333333
2016-11-24,-0.61625
2016-11-25,-0.6419166666666667
2016-11-26,-0.6728333333333333
2016-11-27,-0.7014166666666667
2016-11-28,-0.7349166666666666
2016-11-29,-0.7604166666666666
2016-11-30,-0.7581666666666668
2016-12-01,-0.6776666666666666
2016-12-02,-0.59775
2016-12-03,-0.5851666666666666
2016-12-04,-0.5970833333333333
2016-12-05,-0.6078333333333333
2016-12-06,-0.6200833333333333
2016-12-07,-0.6354166666666666
2016-12-08,-0.6684166666666668
2016-12-09,-0.707
2016-12-10,-0.7687499999999999
2016-12-11,-0.8140833333333334
2016-12-12,-0.8310833333333333
2016-12-13,-0.8656666666666667
2016-12-14,-0.9105833333333333
2016-12-15,-0.9692500000000001
2016-12-16,-1.0562500000000001
2016-12-17,-1.0663333333333334
2016-12-18,-1.0651666666666666
2016-12-19,-1.1218333333333332
2016-12-20,-1.1785833333333333
2016-12-21,-1.1356666666666666
2016-12-22,-1.1106666666666667
2016-12-23,-1.0974166666666667
2016-12-24,-1.0844166666666666
2016-12-25,-1.0664166666666668
2016-12-26,-1.06775
2016-12-27,-1.0418333333333332
2016-12-28,-1.0268333333333333
2016-12-29,-1.015
2016-12-30,-0.9931666666666666
2016-12-31,-0.9901666666666666
2017-01-01,-0.9749166666666667
2017-01-02,-0.9738333333333333
2017-01-03,-0.9576666666666666
2017-01-04,-0.9523333333333333
2017-01-05,-0.9655833333333333
2017-01-06,-0.9787499999999999
2017-01-07,-1.0089166666666667
2017-01-08,-1.0239166666666666
2017-01-09,-1.0571666666666666
2017-01-10,-1.0564166666666666
2017-01-11,-1.0334166666666667
2017-01-12,-1.0280833333333332
2017-01-13,-0.9883333333333333
2017-01-14,-0.9835833333333333
2017-01-15,-0.9698333333333333
2017-01-16,-0.9720833333333333
2017-01-17,-0.9649166666666665
2017-01-18,-0.9474999999999999
2017-01-19,-0.9455
2017-01-20,-0.9485
2017-01-21,-0.9524166666666667
2017-01-22,-0.9571666666666666
2017-01-23,-0.9666666666666667
2017-01-24,-0.965
2017-01-25,-0.9571666666666666
2017-01-26,-0.9583333333333334
2017-01-27,-0.9570833333333333
2017-01-28,-0.971
2017-01-29,-0.9828333333333333
2017-01-30,-1.0031666666666668
2017-01-31,-1.0275833333333333
2017-02-01,-1.0224166666666668
2017-02-02,-1.0384166666666668
2017-02-03,-1.0590833333333334
2017-02-04,-1.0780833333333335
2017-02-05,-1.0875000000000001
2017-02-06,-1.0995833333333334
2017-02-07,-1.1128333333333333
2017-02-08,-1.0906666666666667
2017-02-09,-1.0849166666666668
2017-02-10,-1.09375
2017-02-11,-1.063
2017-02-12,-1.0443333333333333
2017-02-13,-1.0254999999999999
2017-02-14,-1.02425
2017-02-15,-1.0131666666666665
2017-02-16,-1.0075
2017-02-17,-1.0078333333333334
2017-02-18,-1.0001666666666666
2017-02-19,-0.9854166666666666
2017-02-20,-0.9769166666666665
2017-02-21,-0.9750833333333334
2017-02-22,-0.9635833333333332
2017-02-23,-0.9513333333333334
2017-02-24,-0.9237500000000001
2017-02-25,-0.8505833333333334
2017-02-26,-0.7356628078176044
2017-02-27,-0.6333333333333333
2017-02-28,-0.5832499999999999
2017-03-01,-0.5390833333333334
2017-03-02,-0.4984166666666667
2017-03-03,-0.48333333333333334
2017-03-04,-0.4908333333333333
2017-03-05,-0.48466666666666663
2017-03-06,-0.44675
2017-03-07,-0.41324999999999995
2017-03-08,-0.38525000000000004
2017-03-09,-0.36866666666666664
2017-03-10,-0.3625
2017-03-11,-0.39891666666666664
2017-03-12,-0.40425
2017-03-13,-0.38516666666666666
2017-03-14,-0.34508333333333335
2017-03-15,-0.3276666666666667
2017-03-16,-0.30924999999999997
2017-03-17,-0.29666666666666663
2017-03-18,-0.29516666666666663
2017-03-19,-0.2823333333333333
2017-03-20,-0.28058333333333335
2017-03-21,-0.27175
2017-03-22,-0.27616666666666667
2017-03-23,-0.2856666666666667
2017-03-24,-0.27316666666666667
2017-03-25,-0.26075
2017-03-26,-0.25575
2017-03-27,-0.24250000000000002
2017-03-28,-0.2295
2017-03-29,-0.18691666666666665
2017-03-30,-0.11741666666666667
2017-03-31,-0.06849999999999999
2017-04-01,-0.014916666666666667
2017-04-02,0.0165
2017-04-03,0.04641666666666667
2017-04-04,0.10666666666666667
2017-04-05,0.19333333333333333
2017-04-06,0.21624999999999997
2017-04-07,0.22583333333333333
2017-04-08,0.21658333333333335
2017-04-09,0.19425
2017-04-10,0.17991666666666664
2017-04-11,0.16691666666666669
2017-04-12,0.16116666666666668
2017-04-13,0.1475
2017-04-14,0.12933333333333333
2017-04-15,0.11933333333333333
2017-04-16,0.11425
2017-04-17,0.11383333333333334
2017-04-18,0.09591666666666666
2017-04-19,0.08775
2017-04-20,0.07958333333333333
2017-04-21,0.09483333333333333
2017-04-22,0.10058333333333334
2017-04-23,0.09366666666666668
2017-04-24,0.09083333333333334
2017-04-25,0.08741666666666666
2017-04-26,0.08950000000000001
2017-04-27,0.09058333333333334
2017-04-28,0.08900000000000001
2017-04-29,0.08966666666666667
2017-04-30,0.08675
2017-05-01,0.08474999999999999
2017-05-02,0.13591666666666666
2017-05-03,0.16316666666666665
2017-05-04,0.15833333333333333
2017-05-05,0.16958333333333334
2017-05-06,0.20841666666666667
2017-05-07,0.21841666666666668
2017-05-08,0.21075
2017-05-09,0.19508333333333336
2017-05-10,0.17775
2017-05-11,0.16441666666666668
2017-05-12,0.15383333333333335
2017-05-13,0.14958333333333332
2017-05-14,0.1748333333333333
2017-05-15,0.1815
2017-05-16,0.17275
2017-05-17,0.16641666666666668
2017-05-18,0.15833333333333333
2017-05-19,0.15891666666666668
2017-05-20,0.1485
2017-05-21,0.13525
2017-05-22,0.12825
2017-05-23,0.1215
2017-05-24,0.11433333333333334
2017-05-25,0.10733333333333334
2017-05-26,0.12166666666666666
2017-05-27,0.124
2017-05-28,0.11941666666666667
2017-05-29,0.122
2017-05-30,0.12474999999999999
2017-05-31,0.12158333333333333
2017-06-01,0.12283333333333334
2017-06-02,0.11566666666666668
2017-06-03,0.106
2017-06-04,0.09816666666666667
2017-06-05,0.09733333333333333
2017-06-06,0.12225000000000001
2017-06-07,0.12366666666666666
2017-06-08,0.12041666666666667
2017-06-09,0.11616666666666668
2017-06-10,0.113
2017-06-11,0.1045
2017-06-12,0.09808333333333334
2017-06-13,0.09491666666666666
2017-06-14,0.08758333333333333
2017-06-15,0.0805
2017-06-16,0.07583333333333332
2017-06-17,0.07508333333333334
2017-06-18,0.07125
2017-06-19,0.08025
2017-06-20,0.11075
2017-06-21,0.10591666666666666
2017-06-22,0.09833333333333333
2017-06-23,0.09233333333333334
2017-06-24,0.09033333333333333
2017-06-25,0.08558333333333333
2017-06-26,0.07916666666666666
2017-06-27,0.0745
2017-06-28,0.06941666666666667
2017-06-29,0.06383333333333334
2017-06-30,0.06091666666666667
2017-07-01,0.07283333333333333
2017-07-02,0.08233333333333333
2017-07-03,0.07566666666666667
2017-07-04,0.06533333333333334
2017-07-05,0.058916666666666666
2017-07-06,0.05425
2017-07-07,0.049416666666666664
2017-07-08,0.05125
2017-07-09,0.05641666666666667
2017-07-10,0.05125
2017-07-11,0.04833333333333333
2017-07-12,0.04800000000000001
2017-07-13,0.048749999999999995
2017-07-14,0.050333333333333334
2017-07-15,0.04566666666666667
2017-07-16,0.042166666666666665
2017-07-17,0.04033333333333333
2017-07-18,0.04758333333333333
2017-07-19,0.045000000000000005
2017-07-20,0.0425
2017-07-21,0.0395
2017-07-22,0.036833333333333336
2017-07-23,0.03125
2017-07-24,0.03675
2017-07-25,0.03908333333333333
2017-07-26,0.034583333333333334
2017-07-27,0.03425
2017-07-28,0.036
2017-07-29,0.030083333333333333
2017-07-30,0.025166666666666667
2017-07-31,0.021500000000000002
2017-08-01,0.018166666666666668
2017-08-02,0.020916666666666667
2017-08-03,0.023500000000000004
2017-08-04,0.021916666666666668
2017-08-05,0.019
2017-08-06,0.016
2017-08-07,0.009
2017-08-08,0.016166666666666666
2017-08-09,0.013166666666666667
2017-08-10,0.016166666666666666
2017-08-11,0.015
2017-08-12,0.02666666666666667
2017-08-13,0.09716666666666667
2017-08-14,0.09100000000000001
2017-08-15,0.09125
2017-08-16,0.08574999999999999
2017-08-17,0.078
2017-08-18,0.07116666666666667
2017-08-19,0.06775
2017-08-20,0.06291666666666666
2017-08-21,0.056749999999999995
2017-08-22,0.05566666666666667
2017-08-23,0.11699999999999999
2017-08-24,0.12466666666666666
2017-08-25,0.11566666666666665
2017-08-26,0.105
2017-08-27,0.09250000000000001
2017-08-28,0.08325
2017-08-29,0.07358333333333333
2017-08-30,0.06641666666666667
2017-08-31,0.05975
2017-09-01,0.05316666666666667
2017-09-02,0.044250000000000005
2017-09-03,0.0535
2017-09-04,0.06683333333333334
2017-09-05,0.06133333333333333
2017-09-06,0.07024999999999999
2017-09-07,0.08516666666666667
2017-09-08,0.08275
2017-09-09,0.07291666666666667
2017-09-10,0.06583333333333334
2017-09-11,0.06033333333333333
2017-09-12,0.0565
2017-09-13,0.05391666666666667
2017-09-14,0.049999999999999996
2017-09-15,0.049749999999999996
2017-09-16,0.047749999999999994
2017-09-17,0.04574999999999999
2017-09-18,0.04441666666666667
2017-09-19,0.041166666666666664
2017-09-20,0.037333333333333336
2017-09-21,0.03666666666666667
2017-09-22,0.0335
2017-09-23,0.02975
2017-09-24,0.028749999999999998
2017-09-25,0.02716666666666667
2017-09-26,0.0275
2017-09-27,0.027333333333333334
2017-09-28,0.025333333333333333
2017-09-29,0.021083333333333332
2017-09-30,0.02008333333333333
2017-10-01,0.01775
2017-10-02,0.014499999999999999
2017-10-03,0.013333333333333334
2017-10-04,0.011416666666666667
2017-10-05,0.011333333333333334
2017-10-06,0.014916666666666667
2017-10-07,0.018583333333333334
2017-10-08,0.020916666666666667
2017-10-09,0.0365
2017-10-10,0.04699999999999999
2017-10-11,0.0425
2017-10-12,0.037083333333333336
2017-10-13,0.02841666666666667
2017-10-14,0.021500000000000002
2017-10-15,0.021750000000000002
2017-10-16,0.026
2017-10-17,0.006166666666666667
2017-10-18,-0.009166666666666667
2017-10-19,-0.020916666666666667
2017-10-20,-0.034999999999999996
2017-10-21,-0.05933333333333333
2017-10-22,-0.08291666666666667
2017-10-23,-0.10791666666666666
2017-10-24,-0.12641666666666668
2017-10-25,-0.13075
2017-10-26,-0.15441666666666667
2017-10-27,-0.18233333333333335
2017-10-28,-0.2061666666666667
2017-10-29,-0.21150000000000002
2017-10-30,-0.16216666666666665
2017-10-31,-0.17216666666666666
2017-11-01,-0.19225
2017-11-02,-0.2060833333333333
2017-11-03,-0.216
2017-11-04,-0.24725
2017-11-05,-0.28475
2017-11-06,-0.31033333333333335
2017-11-07,-0.3353333333333333
2017-11-08,-0.3705
2017-11-09,-0.4061666666666666
2017-11-10,-0.43524999999999997
2017-11-11,-0.4848333333333333
2017-11-12,-0.5119166666666667
2017-11-13,-0.5396666666666667
2017-11-14,-0.5706666666666667
2017-11-15,-0.6018333333333333
2017-11-16,-0.6285
2017-11-17,-0.6661666666666667
2017-11-18,-0.7225833333333332
2017-11-19,-0.7454999999999999
2017-11-20,-0.7946666666666666
2017-11-21,-0.84625
2017-11-22,-0.8890833333333333
2017-11-23,-0.93725
2017-11-24,-0.9849166666666666
2017-11-25,-1.0314166666666666
2017-11-26,-1.07125
2017-11-27,-1.1232499999999999
2017-11-28,-1.19475
2017-11-29,-1.27525
2017-11-30,-1.5366624313825858
2017-12-01,-1.8846114417554793
2017-12-02,-2.1400255645839668
2017-12-03,-2.1238333333333332
2017-12-04,-1.7666182053285513
2017-12-05,-1.4375833333333334
2017-12-06,-1.4807499999999998
2017-12-07,-1.7204009476273974
2017-12-08,-1.9244166666666667
2017-12-09,-1.9340007135167456
2017-12-10,-1.805214366244396
2017-12-11,-1.6478333333333335
2017-12-12,-1.5499720618182564
2017-12-13,-1.5130999529377833
2017-12-14,-1.5170251464815159
2017-12-15,-1.5415557822390547
2017-12-16,-1.5664999999999998
2017-12-17,-1.5715000000000001
2017-12-18,-1.5480833333333333
2017-12-19,-1.5256666666666667
2017-12-20,-1.5079166666666666
2017-12-21,-1.5102499999999999
2017-12-22,-1.50125
2017-12-23,-1.4788333333333332
2017-12-24,-1.4535833333333334
2017-12-25,-1.4375833333333334
2017-12-26,-1.4400833333333332
2017-12-27,-1.4635833333333332
2017-12-28,-1.4808333333333332
2017-12-29,-1.4724166666666667
2017-12-30,-1.45225
2017-12-31,-1.45075
2018-01-01,-1.4755
2018-01-02,-1.4389166666666666
2018-01-03,-1.4209166666666666
2018-01-04,-1.383
2018-01-05,-1.3870833333333332
2018-01-06,-1.4076666666666666
2018-01-07,-1.4155833333333332
2018-01-08,-1.3444166666666666
2018-01-09,-1.3171666666666668
2018-01-10,-1.3201666666666667
2018-01-11,-1.3022500000000001
2018-01-12,-1.25125
2018-01-13,-1.0929435299924026
2018-01-14,-0.9379166666666667
2018-01-15,-0.8899166666666667
2018-01-16,-0.8484166666666666
2018-01-17,-0.8186666666666667
2018-01-18,-0.824
2018-01-19,-0.8143333333333334
2018-01-20,-0.8093333333333333
2018-01-21,-0.80225
2018-01-22,-0.8072500000000001
2018-01-23,-0.7952499999999999
2018-01-24,-0.7557272727272728
2018-01-25,-0.7703333333333333
2018-01-26,-0.7843333333333334
2018-01-27,-0.7843333333333334
2018-01-28,-0.7815833333333333
2018-01-29,-0.7948333333333334
2018-01-30,-0.8156666666666667
2018-01-31,-0.8476666666666667
2018-02-01,-0.8568333333333333
2018-02-02,-0.88125
2018-02-03,-0.932
2018-02-04,-0.9215833333333334
2018-02-05,-0.9185833333333333
2018-02-06,-0.95325
2018-02-07,-0.9685
2018-02-08,-0.9768333333333333
2018-02-09,-1.0090000000000001
2018-02-10,-1.0108333333333333
2018-02-11,-1.0159166666666666
2018-02-12,-0.9974166666666666
2018-02-13,-1.0073333333333332
2018-02-14,-1.0046666666666666
2018-02-15,-1.0086666666666666
2018-02-16,-1.0015833333333333
2018-02-17,-0.9978333333333333
2018-02-18,-0.9843333333333333
2018-02-19,-0.9944166666666666
2018-02-20,-0.953
2018-02-21,-0.8785
2018-02-22,-0.7954166666666667
2018-02-23,-0.7325833333333334
2018-02-24,-0.6640833333333334
2018-02-25,-0.60875
2018-02-26,-0.55225
2018-02-27,-0.52175
2018-02-28,-0.5080833333333333
2018-03-01,-0.49724999999999997
2018-03-02,-0.47341666666666665
2018-03-03,-0.4499166666666667
2018-03-04,-0.444
2018-03-05,-0.44283333333333336
2018-03-06,-0.44808333333333333
2018-03-07,-0.44975000000000004
2018-03-08,-0.4349166666666667
2018-03-09,-0.4414166666666666
2018-03-10,-0.44225000000000003
2018-03-11,-0.4586666666666667
2018-03-12,-0.4739166666666666
2018-03-13,-0.48408333333333337
2018-03-14,-0.48275
2018-03-15,-0.47700000000000004
2018-03-16,-0.49275
2018-03-17,-0.51225
2018-03-18,-0.5523333333333333
2018-03-19,-0.5623333333333334
2018-03-20,-0.5784999999999999
2018-03-21,-0.5895833333333332
2018-03-22,-0.5805833333333333
2018-03-23,-0.5678333333333333
2018-03-24,-0.55525
2018-03-25,-0.5438333333333334
2018-03-26,-0.5320833333333334
2018-03-27,-0.5198333333333334
2018-03-28,-0.49983333333333335
2018-03-29,-0.4850833333333333
2018-03-30,-0.4544166666666667
2018-03-31,-0.41608333333333336
2018-04-01,-0.36999999999999994
2018-04-02,-0.33499999999999996
2018-04-03,-0.29625
2018-04-04,-0.23950000000000002
2018-04-05,-0.19658333333333333
2018-04-06,-0.16475
2018-04-07,-0.09875
2018-04-08,-0.06308333333333334
2018-04-09,-0.033499999999999995
2018-04-10,0.00016666666666666682
2018-04-11,0.022833333333333334
2018-04-12,0.04025
2018-04-13,0.056666666666666664
2018-04-14,0.06899999999999999
2018-04-15,0.07916666666666666
2018-04-16,0.10049999999999999
2018-04-17,0.14416666666666667
2018-04-18,0.13958333333333334
2018-04-19,0.1265
2018-04-20,0.1125
2018-04-21,0.09791666666666667
2018-04-22,0.08391666666666668
2018-04-23,0.076
2018-04-24,0.07083333333333333
2018-04-25,0.07133333333333333
2018-04-26,0.07533333333333334
2018-04-27,0.07024999999999999
2018-04-28,0.07141666666666667
2018-04-29,0.08341666666666668
2018-04-30,0.08508333333333333
2018-05-01,0.08725
2018-05-02,0.08691666666666666
2018-05-03,0.08166666666666667
2018-05-04,0.08175
2018-05-05,0.08533333333333333
2018-05-06,0.07525
2018-05-07,0.07708333333333334
2018-05-08,0.07083333333333333
2018-05-09,0.07533333333333332
2018-05-10,0.08075
2018-05-11,0.07975
2018-05-12,0.08233333333333333
2018-05-13,0.08425
2018-05-14,0.08358333333333334
2018-05-15,0.08941666666666666
2018-05-16,0.11033333333333334
2018-05-17,0.11
2018-05-18,0.11041666666666666
2018-05-19,0.10825
2018-05-20,0.11616666666666668
2018-05-21,0.1125
2018-05-22,0.11083333333333334
2018-05-23,0.10558333333333332
2018-05-24,0.10075
2018-05-25,0.09200000000000001
2018-05-26,0.08416666666666667
2018-05-27,0.08208333333333334
2018-05-28,0.07933333333333333
2018-05-29,0.07066666666666667
2018-05-30,0.064
2018-05-31,0.05775
2018-06-01,0.05641666666666667
2018-06-02,0.05641666666666667
2018-06-03,0.05291666666666667
2018-06-04,0.05516666666666667
2018-06-05,0.057416666666666664
2018-06-06,0.052833333333333336
2018-06-07,0.04933333333333333
2018-06-08,0.04558333333333334
2018-06-09,0.043666666666666666
2018-06-10,0.0415
2018-06-11,0.034249999999999996
2018-06-12,0.030416666666666665
2018-06-13,0.025083333333333332
2018-06-14,0.025083333333333332
2018-06-15,0.015083333333333332
2018-06-16,0.014666666666666666
2018-06-17,0.012166666666666666
2018-06-18,0.015
2018-06-19,0.03075
2018-06-20,0.028916666666666663
2018-06-21,0.024583333333333332
2018-06-22,0.020166666666666666
2018-06-23,0.014333333333333332
2018-06-24,0.014083333333333335
2018-06-25,0.018333333333333333
2018-06-26,0.014083333333333331
2018-06-27,0.012666666666666666
2018-06-28,0.04758333333333333
2018-06-29,0.05533333333333334
2018-06-30,0.047499999999999994
2018-07-01,0.03975
2018-07-02,0.03416666666666667
2018-07-03,0.029249999999999998
2018-07-04,0.023999999999999997
2018-07-05,0.02125
2018-07-06,0.01875
2018-07-07,0.0095
2018-07-08,0.004583333333333333
2018-07-09,0.00175
2018-07-10,-0.003916666666666666
2018-07-11,-0.008333333333333333
2018-07-12,-0.011750000000000002
2018-07-13,-0.017249999999999998
2018-07-14,-0.01908333333333333
2018-07-15,-0.0105
2018-07-16,-0.009
2018-07-17,0.0155
2018-07-18,0.038
2018-07-19,0.030083333333333333
2018-07-20,0.023999999999999997
2018-07-21,0.014333333333333332
2018-07-22,0.004583333333333333
2018-07-23,0.018333333333333333
2018-07-24,0.02008333333333333
2018-07-25,0.018166666666666668
2018-07-26,0.04616666666666667
2018-07-27,0.043583333333333335
2018-07-28,0.041166666666666664
2018-07-29,0.035833333333333335
2018-07-30,0.02716666666666667
2018-07-31,0.023916666666666666
2018-08-01,0.03375
2018-08-02,0.059
2018-08-03,0.06716666666666667
2018-08-04,0.08
2018-08-05,0.08083333333333333
2018-08-06,0.07758333333333334
2018-08-07,0.07591666666666667
2018-08-08,0.08566666666666667
2018-08-09,0.08275
2018-08-10,0.074
2018-08-11,0.076
2018-08-12,0.11816666666666666
2018-08-13,0.12808333333333333
2018-08-14,0.13391666666666668
2018-08-15,0.12566666666666668
2018-08-16,0.11491666666666667
2018-08-17,0.10975
2018-08-18,0.17891666666666664
2018-08-19,0.17875
2018-08-20,0.16358333333333333
2018-08-21,0.14608333333333334
2018-08-22,0.14225000000000002
2018-08-23,0.12983333333333333
2018-08-24,0.11416666666666668
2018-08-25,0.10158333333333334
2018-08-26,0.08941666666666666
2018-08-27,0.08016666666666666
2018-08-28,0.073
2018-08-29,0.06525
2018-08-30,0.058916666666666666
2018-08-31,0.051
2018-09-01,0.043833333333333335
2018-09-02,0.03866666666666666
2018-09-03,0.035333333333333335
2018-09-04,0.032
2018-09-05,0.02925
2018-09-06,0.03191666666666667
2018-09-07,0.03933333333333333
2018-09-08,0.03358333333333333
2018-09-09,0.025333333333333333
2018-09-10,0.024333333333333332
2018-09-11,0.05983333333333333
2018-09-12,0.09158333333333334
2018-09-13,0.13741666666666666
2018-09-14,0.13341666666666666
2018-09-15,0.12283333333333334
2018-09-16,0.11
2018-09-17,0.09708333333333334
2018-09-18,0.13641666666666666
2018-09-19,0.1585
2018-09-20,0.1285
2018-09-21,0.09675
2018-09-22,0.07575
2018-09-23,0.050583333333333334
2018-09-24,0.024583333333333332
2018-09-25,0.026166666666666668
2018-09-26,0.058499999999999996
2018-09-27,0.08600000000000001
2018-09-28,0.08758333333333333
2018-09-29,0.07666666666666666
2018-09-30,0.059416666666666666
2018-10-01,0.03933333333333334
2018-10-02,0.03491666666666667
2018-10-03,0.0635
2018-10-04,0.06391666666666666
2018-10-05,0.057166666666666664
2018-10-06,0.041833333333333333
2018-10-07,0.026
2018-10-08,0.015
2018-10-09,0.0038
